OnsetTime	OffsetTime	MidiPitch
0.522991	1.06099	67
0.522991	1.06399	55
0.997984	1.06698	69
0.997984	1.06698	57
1.06099	1.57298	67
1.06399	1.57499	55
1.236	1.58198	64
1.236	1.58198	52
1.40399	1.58198	60
1.40699	1.58198	48
1.57298	2.16098	67
1.57499	2.16098	55
1.99699	2.15998	76
1.99798	2.16098	64
2.15998	3.40598	76
2.16098	3.40598	64
3.33899	3.63299	72
3.33998	3.63398	60
3.92398	4.47697	67
4.40098	4.47697	65
4.46597	5.01197	64
4.64897	4.99897	60
4.81996	5.01197	55
4.99897	5.52395	60
5.17696	5.52096	64
5.34595	5.52395	67
5.51995	5.66295	55
5.52096	5.66394	64
5.52395	5.66695	67
5.52395	5.66695	43
5.80394	5.93593	65
5.80394	5.93694	62
5.80493	5.93694	55
5.80693	5.93993	45
5.93993	6.07593	47
6.07694	6.18193	55
6.07993	6.18193	60
6.07993	6.18193	64
6.08093	6.18492	48
6.35994	6.47193	59
6.36093	6.47193	55
6.36293	6.47293	62
6.36393	6.47593	43
6.66092	6.76593	55
6.66393	6.76593	64
6.66493	6.76892	60
6.66493	6.76892	48
7.23093	7.37494	55
7.23192	7.37793	63
7.23192	7.37894	67
7.23392	7.52093	43
7.52192	7.66493	65
7.52192	7.66892	55
7.52493	7.66892	62
7.52592	7.66992	45
7.67191	7.80592	47
7.80592	7.90991	55
7.80892	7.91091	60
7.80892	7.91091	63
7.80892	7.91392	48
8.0889	8.19989	62
8.0929	8.2009	55
8.0929	8.2009	59
8.09391	8.20389	43
8.37589	8.48488	55
8.37589	8.48488	60
8.37689	8.48488	63
8.37889	8.48788	48
8.65887	8.76088	65
8.65988	8.76487	58
8.65988	8.76687	62
8.66288	8.76788	46
8.93887	9.20486	58
8.93986	9.22288	62
8.93986	9.22288	65
8.93986	9.22288	46
9.20186	9.40488	63
9.20486	9.40887	58
9.20587	9.41188	67
9.20587	9.41188	51
9.47487	9.76187	58
9.47887	9.76187	67
9.48187	9.76187	63
9.48187	9.76187	51
9.75488	9.96488	62
9.75488	9.96587	66
9.75587	9.96587	69
9.75888	9.96787	50
10.0349	10.3149	69
10.0349	10.3149	66
10.0359	10.3159	62
10.0389	10.3159	50
10.3179	10.5279	62
10.3189	10.5289	67
10.3189	10.5289	70
10.3219	10.5329	55
10.5979	10.9029	70
10.5989	10.8919	62
10.5989	10.8929	67
10.6019	10.8969	55
10.8919	11.2389	62
10.8929	11.2359	67
10.8929	11.2399	71
10.8959	11.2399	43
10.8969	11.2419	55
10.8969	11.2399	53
11.2359	12.5829	67
11.2389	12.5829	62
11.2399	12.2199	71
11.2399	12.5829	53
11.2399	12.2219	43
11.2419	12.2229	55
12.2189	12.5829	65
12.2199	12.5829	77
12.2199	12.5829	71
12.2219	12.5829	50
12.2219	12.5829	43
12.2229	12.5759	55
12.5719	14.3438	64
12.5728	14.3438	72
12.5759	14.3438	76
12.5759	14.3438	55
12.5769	14.3438	48
14.3398	14.8838	67
14.3438	14.8858	55
14.8128	14.8898	69
14.8158	14.8898	57
14.8838	15.3938	67
14.8858	15.3968	55
15.0578	15.4038	64
15.0588	15.4038	52
15.2268	15.4038	60
15.2288	15.4038	48
15.3938	15.9818	67
15.3968	15.9818	55
15.8248	15.9808	76
15.8268	15.9818	64
15.9808	17.1618	76
15.9818	17.1618	64
17.1608	17.4548	72
17.1608	17.4558	60
17.7488	18.2978	67
18.2218	18.2978	65
18.2888	18.8378	64
18.4698	18.8238	60
18.6488	18.8378	55
18.8238	19.3728	60
18.9988	19.3488	64
19.1738	19.3488	67
19.3478	19.4918	55
19.3488	19.4918	64
19.3488	19.4928	67
19.3518	19.4958	43
19.6348	19.7688	55
19.6358	19.7718	62
19.6388	19.7728	65
19.6398	19.7728	45
19.7758	19.9048	47
19.9058	20.0128	55
19.9058	20.0138	60
19.9068	20.0168	64
19.9078	20.0178	48
20.1948	20.3038	55
20.1958	20.3048	59
20.1958	20.3048	62
20.1968	20.3068	43
20.4898	20.6008	55
20.4898	20.6018	60
20.4928	20.6018	64
20.4928	20.6048	48
21.0638	21.2068	55
21.0638	21.2098	63
21.0668	21.2108	67
21.0668	21.3538	43
21.3538	21.4928	55
21.3548	21.4938	62
21.3578	21.4938	65
21.3578	21.4978	45
21.4978	21.6298	47
21.6338	21.7428	55
21.6368	21.7458	60
21.6368	21.7458	63
21.6378	21.7468	48
21.9168	22.0298	55
21.9178	22.0298	59
21.9208	22.0308	62
21.9218	22.0308	43
22.2008	22.3058	55
22.2038	22.3068	60
22.2048	22.3068	63
22.2048	22.3088	48
22.4838	22.6238	58
22.4888	22.6277	62
22.4888	22.6287	65
22.4908	22.6307	46
22.7637	23.0307	58
22.7677	23.0377	62
22.7677	23.0377	65
22.7687	23.0377	46
23.0307	23.2397	58
23.0317	23.2407	63
23.0317	23.2437	67
23.0337	23.2437	51
23.3107	23.5917	58
23.3107	23.5917	63
23.3137	23.5917	67
23.3137	23.5917	51
23.5897	23.7967	62
23.5907	23.7997	66
23.5907	23.8007	69
23.5907	23.8007	50
23.8667	24.1507	62
23.8697	24.1567	66
23.8697	24.1567	69
23.8707	24.1567	50
24.1507	24.3607	62
24.1517	24.3637	67
24.1537	24.3637	70
24.1547	24.3647	55
24.4307	24.7207	62
24.4347	24.7207	67
24.4347	24.7387	70
24.4347	24.7247	55
24.7207	25.0647	62
24.7207	25.0677	67
24.7207	25.0677	71
24.7247	25.0677	43
24.7247	25.0687	53
24.7247	25.0707	55
25.0647	26.4637	62
25.0677	26.4637	67
25.0677	26.0467	71
25.0677	26.0477	43
25.0687	26.4637	53
25.0707	26.0507	55
26.0437	26.4637	65
26.0467	26.4637	71
26.0477	26.4637	77
26.0477	26.4637	43
26.0477	26.4637	50
26.0507	26.4087	55
26.4047	28.1697	64
26.4057	28.1697	72
26.4087	28.1697	76
26.4087	28.1697	48
26.4087	28.1697	55
28.1697	28.7287	76
28.6587	28.7317	77
28.7287	29.2767	76
28.9067	29.2707	72
29.0817	29.2767	69
29.1977	29.2767	74
29.2707	29.8277	72
29.4457	29.8247	69
29.6317	29.8237	64
29.8237	30.3867	64
29.8247	30.3937	69
29.8277	30.3937	72
29.8277	30.3877	52
30.1047	30.3847	68
30.1077	30.3877	71
30.3137	30.3937	53
30.3847	31.0247	68
30.3867	30.6997	64
30.3877	31.0257	71
30.3877	31.0277	52
30.5907	31.0377	47
30.6987	31.0377	66
30.6997	31.0247	64
30.6997	31.0377	69
30.8037	31.0377	40
31.0247	31.6117	64
31.0247	31.6127	68
31.0257	31.6127	71
31.0277	31.6157	52
31.6167	32.1897	64
31.6167	32.1937	67
31.6187	32.1947	72
31.6197	32.1937	52
31.8967	32.1937	71
32.1197	32.1947	53
32.1897	32.4977	64
32.1937	32.4977	67
32.1937	32.7957	71
32.1937	32.8127	52
32.3977	32.8127	55
32.4977	32.8127	64
32.4977	32.7957	67
32.4987	32.8127	72
32.5957	32.8127	60
32.7957	33.4147	67
32.7957	33.4147	71
32.7987	33.4147	65
32.7987	33.4147	62
33.0997	33.4147	77
33.4117	34.0237	76
33.4117	34.0237	64
33.4127	34.0237	60
33.9407	34.0237	74
34.0167	34.6467	72
34.0207	34.3257	66
34.0207	34.3257	62
34.2237	34.6327	71
34.3257	34.6467	66
34.3257	34.6367	62
34.4297	34.6467	69
34.6327	35.2697	71
34.6367	35.2707	62
34.6367	35.2707	55
34.6377	35.2727	67
35.2727	35.8397	71
35.2737	35.8407	59
35.7817	35.8407	72
35.7837	35.8407	60
35.8397	36.3027	71
35.8407	36.3027	59
36.0197	36.3027	67
36.0227	36.3027	55
36.1877	36.3267	64
36.1897	36.3267	52
36.3757	36.7357	79
36.3797	36.7357	67
36.6527	36.7687	76
36.6557	36.7687	64
36.9537	37.5177	71
36.9567	37.5197	59
37.4547	37.5207	72
37.4557	37.5207	60
37.5177	37.8947	71
37.5197	37.8947	59
37.6917	37.8947	67
37.6917	37.8947	55
37.8597	38.0027	64
37.8627	38.0037	52
38.0497	38.3926	79
38.0497	38.3926	67
38.3257	38.4336	76
38.3257	38.4346	64
38.6156	39.0006	83
38.6197	39.0006	75
38.6226	39.0006	78
38.6226	39.0006	47
38.9076	39.0086	71
38.9096	39.0086	59
39.1156	39.1756	81
39.1166	39.1766	63
39.1766	39.3436	79
39.1796	39.3446	64
39.3466	39.5186	78
39.3476	39.5196	66
39.5226	39.7076	76
39.5236	39.7116	67
39.7116	40.0676	83
39.7146	40.0676	75
39.7156	40.0676	78
39.7156	40.0676	47
39.9916	40.0926	71
39.9956	40.0936	59
40.1976	40.2536	81
40.1976	40.2576	63
40.2576	40.4216	79
40.2586	40.4246	64
40.4256	40.5966	78
40.4256	40.5966	66
40.5996	40.7966	76
40.6006	40.7966	67
40.7976	41.2586	83
40.7996	41.2586	75
40.7996	41.2586	78
40.8006	41.2586	47
41.0896	41.2586	71
41.0906	41.2586	59
41.3736	41.8356	95
41.3766	41.8356	35
41.6916	41.8356	83
41.6926	41.8356	47
43.6306	44.0616	79
43.6356	44.0616	64
43.9156	44.0616	76
43.9166	44.0616	67
44.2026	44.5616	79
44.2056	44.5616	64
44.4826	44.6216	76
44.4856	44.6226	67
44.7656	45.2236	79
44.7686	45.2236	64
45.0466	45.2236	76
45.0486	45.2236	67
45.3396	45.7696	79
45.3426	45.7696	64
45.6196	45.7696	76
45.6226	45.7696	67
45.9026	46.3506	79
45.9036	46.3506	64
46.1896	46.3506	76
46.1926	46.3506	67
46.4736	46.9426	79
46.4736	46.9426	64
46.7536	46.9426	76
46.7546	46.9426	67
47.0336	47.5835	79
47.0366	47.5826	76
47.0376	47.5855	55
47.3106	47.5936	67
47.5125	47.5936	57
47.5826	48.1225	76
47.5835	48.1225	79
47.5855	48.1255	55
47.7615	48.1315	52
47.8495	48.1315	67
47.9436	48.1315	48
48.1225	48.7065	76
48.1225	48.7096	79
48.1255	48.7105	55
48.4035	48.7105	67
48.5455	48.7096	64
48.7065	49.2875	76
48.7096	49.2905	79
48.7096	50.2286	64
49.0045	49.5755	67
49.2875	49.8576	76
49.2905	49.8585	79
49.5755	50.1445	67
49.8576	50.2286	76
49.8585	50.2286	79
49.8615	50.2286	60
50.1445	50.2886	67
50.4315	50.9716	67
50.9015	50.9815	69
50.9716	51.5076	67
51.1525	51.5235	64
51.3245	51.5235	60
51.5076	52.0975	67
51.9295	52.0865	76
52.0865	53.1655	76
52.0875	52.6265	55
52.5635	52.6375	57
52.6265	53.1625	55
52.8055	53.1655	52
52.9875	53.1655	48
53.1615	53.7325	72
53.1625	53.7325	55
53.5825	53.7295	64
53.7295	54.2855	79
53.7295	54.8205	64
54.2045	54.2855	77
54.2755	54.8205	76
54.4565	54.8175	72
54.6355	54.8205	67
54.8175	55.3595	72
54.8185	55.3595	60
54.9965	55.3565	76
55.1745	55.3575	79
55.3565	55.4995	67
55.3565	55.4995	76
55.3575	55.5005	79
55.3595	55.5035	43
55.6395	55.7795	67
55.6405	55.7795	74
55.6405	55.7805	77
55.6425	55.7805	45
55.7835	55.9135	47
55.9135	56.0215	67
55.9145	56.0225	72
55.9165	56.0245	76
55.9165	56.0255	48
56.2035	56.3045	67
56.2035	56.3085	71
56.2045	56.3085	74
56.2045	56.3085	43
56.4865	56.5945	67
56.4865	56.5995	72
56.4875	56.5995	76
56.4905	56.5995	48
57.0605	57.3515	67
57.0615	57.2085	51
57.0615	57.2085	55
57.3515	57.4915	69
57.3525	57.4915	50
57.3545	57.4925	53
57.3545	57.4955	55
57.4955	57.6275	71
57.6285	57.7395	72
57.6325	57.7405	48
57.6325	57.7435	51
57.6345	57.7445	55
57.9215	58.0235	67
57.9225	58.0265	47
57.9225	58.0265	50
57.9235	58.0275	55
58.2045	58.3065	72
58.2055	58.3115	48
58.2055	58.3115	51
58.2085	58.3135	55
58.4895	58.6285	70
58.4895	58.6295	82
58.4895	58.6295	50
58.4925	58.6325	53
58.4925	58.6335	58
58.7615	58.8945	70
58.7615	58.8955	82
58.7655	58.8955	53
58.7655	58.8975	56
58.7665	58.8985	58
59.0345	59.1675	87
59.0345	59.1685	75
59.0355	59.1715	51
59.0385	59.1715	55
59.0385	59.1715	58
59.3075	59.4485	87
59.3085	59.4485	75
59.3115	59.4495	51
59.3115	59.4515	55
59.3125	59.4515	58
59.5805	59.7175	86
59.5815	59.7205	74
59.5815	59.7205	54
59.5825	59.7245	57
59.5845	59.7245	62
59.8565	60.0044	74
59.8605	60.0055	86
59.8615	60.0055	57
59.8615	60.0075	60
59.8635	60.0075	62
60.1404	60.2874	91
60.1444	60.2884	79
60.1474	60.2914	55
60.1484	60.2924	58
60.1484	60.2924	62
60.4284	60.5714	79
60.4284	60.5744	91
60.4304	60.5754	55
60.4314	60.5754	58
60.4314	60.5784	62
60.7114	60.8684	89
60.7154	60.8694	77
60.7154	60.8694	43
60.7154	60.8724	50
60.7184	60.8734	59
61.0224	62.3704	89
61.0264	62.3704	77
61.0294	62.3704	43
61.0294	62.3704	50
61.0294	62.3704	59
62.0064	62.3704	71
62.0104	62.3704	83
62.0104	62.3704	65
62.0104	62.3684	67
62.0114	62.3704	55
62.3674	64.1214	84
62.3674	64.1214	72
62.3684	64.1214	67
62.3704	64.1214	64
62.3704	64.1214	60
64.1214	64.6774	76
64.6074	64.6834	77
64.6774	65.2334	76
64.8584	65.2224	72
65.0374	65.2334	69
65.1564	65.2334	74
65.2224	65.7834	72
65.4044	65.7824	69
65.5834	65.7804	64
65.7804	66.3434	64
65.7824	66.3464	69
65.7834	66.3464	72
65.7864	66.3454	52
66.0604	66.3424	68
66.0624	66.3434	71
66.2694	66.3464	53
66.3424	66.9764	68
66.3434	66.6544	64
66.3434	66.9764	71
66.3454	66.9764	52
66.5464	66.9824	47
66.6544	66.9824	66
66.6544	66.9734	64
66.6544	66.9824	69
66.7564	66.9824	40
66.9734	67.5724	64
66.9764	67.5764	68
66.9764	67.5764	71
66.9764	67.5754	52
67.5724	68.1454	64
67.5734	68.1484	67
67.5754	68.1524	72
67.5754	68.1494	52
67.8584	68.1494	71
68.0694	68.1524	53
68.1454	68.4534	64
68.1484	68.4544	67
68.1494	68.7474	71
68.1494	68.7573	52
68.3484	68.7573	55
68.4534	68.7573	64
68.4544	68.7434	67
68.4564	68.7573	72
68.5484	68.7573	60
68.7434	69.3643	67
68.7474	69.3643	71
68.7474	69.3643	65
68.7483	69.3643	62
69.0493	69.3643	77
69.3603	69.9823	76
69.3603	69.9823	64
69.3634	69.9823	60
69.8923	69.9823	74
69.9693	70.5913	72
69.9693	70.2763	66
69.9703	70.2773	62
70.1683	70.5843	71
70.2763	70.5913	66
70.2773	70.5853	62
70.3793	70.5913	69
70.5843	71.2173	71
70.5853	71.2223	62
70.5853	71.2223	55
70.5863	71.2223	67
71.2243	71.7223	71
71.2253	71.7263	59
71.7273	71.7893	72
71.7293	71.7893	60
71.7903	72.1873	71
71.7923	72.1873	59
71.9703	72.1873	67
71.9713	72.1873	55
72.1393	72.2823	64
72.1393	72.2833	52
72.3343	72.7163	79
72.3343	72.7163	67
72.6143	72.7343	76
72.6153	72.7343	64
72.9363	73.5083	71
72.9403	73.5103	59
73.4443	73.5113	72
73.4443	73.5113	60
73.5083	73.8853	71
73.5103	73.8853	59
73.6833	73.8853	67
73.6863	73.8853	55
73.8513	74.0013	64
73.8533	74.0013	52
74.0533	74.4693	79
74.0533	74.4693	67
74.3233	74.4693	76
74.3233	74.4693	64
74.6273	75.0163	83
74.6273	75.0163	75
74.6303	75.0163	78
74.6303	75.0163	47
74.9213	75.0233	71
74.9223	75.0233	59
75.1313	75.1943	81
75.1323	75.1983	63
75.1983	75.3623	79
75.1983	75.3663	64
75.3663	75.5263	78
75.3683	75.5273	66
75.5273	75.7363	76
75.5303	75.7373	67
75.7373	76.1003	83
75.7383	76.1003	75
75.7403	76.1003	78
75.7403	76.1003	47
76.0243	76.1253	71
76.0243	76.1263	59
76.2303	76.2933	81
76.2313	76.2933	63
76.2973	76.4613	79
76.2973	76.4623	64
76.4643	76.6293	78
76.4653	76.6293	66
76.6333	76.8213	76
76.6333	76.8223	67
76.8223	77.2803	83
76.8253	77.2803	75
76.8263	77.2803	78
76.8263	77.2803	47
77.1093	77.2803	71
77.1093	77.2803	59
77.3883	77.8473	95
77.3893	77.8473	35
77.7043	77.8473	83
77.7073	77.8473	47
79.6463	80.0762	79
79.6502	80.0762	64
79.9303	80.0762	76
79.9303	80.0762	67
80.2172	80.5772	79
80.2172	80.5772	64
80.4912	80.6333	76
80.4932	80.6343	67
80.7803	81.2393	79
80.7813	81.2393	64
81.0603	81.2393	76
81.0633	81.2393	67
81.3502	81.7852	79
81.3512	81.7852	64
81.6352	81.7852	76
81.6362	81.7852	67
81.9182	82.3622	79
81.9182	82.3622	64
82.1992	82.3622	76
82.2012	82.3622	67
82.4812	82.9572	79
82.4812	82.9572	64
82.7682	82.9572	76
82.7692	82.9572	67
83.0482	83.5912	79
83.0512	83.5912	76
83.0512	83.5942	55
83.3172	83.6012	67
83.5242	83.6012	57
83.5912	84.1192	76
83.5912	84.1192	79
83.5942	84.1232	55
83.7692	84.1302	52
83.8602	84.1302	67
83.9452	84.1302	48
84.1192	84.7042	76
84.1192	84.7052	79
84.1232	84.7072	55
84.4002	84.7072	67
84.5432	84.7072	64
84.7042	85.2842	76
84.7052	85.2852	79
84.7072	86.2262	64
85.0052	85.5722	67
85.2842	85.8562	76
85.2852	85.8562	79
85.5722	86.1462	67
85.8562	86.2262	76
85.8562	86.2262	79
85.8582	86.2262	60
86.1462	86.2822	67
86.4292	86.9682	67
86.9052	86.9792	69
86.9682	87.5032	67
87.1512	87.5142	64
87.3292	87.5142	60
87.5032	88.0922	67
87.9272	88.0922	76
88.0922	89.1662	76
88.0922	88.6242	55
88.5612	88.6382	57
88.6242	89.1602	55
88.8092	89.1662	52
88.9842	89.1662	48
89.1592	89.7362	72
89.1602	89.7362	55
89.5792	89.7342	64
89.7342	90.2832	79
89.7342	90.8212	64
90.2032	90.2832	77
90.2722	90.8212	76
90.4512	90.8122	72
90.6332	90.8212	67
90.8122	91.3612	72
90.8142	91.3612	60
91.0012	91.3582	76
91.1792	91.3612	79
91.3582	91.4942	67
91.3582	91.4972	76
91.3612	91.4982	79
91.3612	91.4982	43
91.6402	91.7772	67
91.6412	91.7812	74
91.6442	91.7842	77
91.6442	91.7852	45
91.7852	91.9142	47
91.9142	92.0252	67
91.9172	92.0262	72
91.9172	92.0262	76
91.9172	92.0272	48
92.2042	92.3172	67
92.2042	92.3172	71
92.2082	92.3172	74
92.2082	92.3182	43
92.4982	92.6032	67
92.4992	92.6072	72
92.5022	92.6072	76
92.5052	92.6082	48
93.0682	93.3692	67
93.0692	93.2192	51
93.0692	93.2232	55
93.3732	93.5102	69
93.3742	93.5102	50
93.3742	93.5132	53
93.3752	93.5132	55
93.5132	93.6462	71
93.6472	93.7512	72
93.6472	93.7552	48
93.6482	93.7582	51
93.6492	93.7582	55
93.9342	94.0452	67
93.9372	94.0462	47
93.9372	94.0462	50
93.9382	94.0482	55
94.2202	94.3212	72
94.2202	94.3252	48
94.2212	94.3262	51
94.2212	94.3262	55
94.5042	94.6432	70
94.5042	94.6442	82
94.5052	94.6442	50
94.5072	94.6452	53
94.5072	94.6472	58
94.7802	94.9142	70
94.7802	94.9172	82
94.7842	94.9172	53
94.7842	94.9202	56
94.7852	94.9212	58
95.0502	95.1862	87
95.0512	95.1862	75
95.0512	95.1902	51
95.0512	95.1932	55
95.0532	95.1932	58
95.3262	95.4592	87
95.3272	95.4632	75
95.3292	95.4642	51
95.3302	95.4642	55
95.3302	95.4662	58
95.5992	95.7392	86
95.6032	95.7401	74
95.6032	95.7401	54
95.6032	95.7431	57
95.6062	95.7431	62
95.8791	96.0151	74
95.8801	96.0191	86
95.8801	96.0191	57
95.8821	96.0231	60
95.8831	96.0231	62
96.1631	96.3021	91
96.1631	96.3031	79
96.1641	96.3031	55
96.1661	96.3061	58
96.1661	96.3071	62
96.4461	96.5931	79
96.4461	96.5941	91
96.4501	96.5941	55
96.4501	96.5961	58
96.4511	96.5971	62
96.7301	96.8871	89
96.7331	96.8911	77
96.7331	96.8911	43
96.7371	96.8941	50
96.7371	96.8951	59
97.0451	98.3921	89
97.0451	98.3921	77
97.0481	98.3921	43
97.0481	98.3921	50
97.0521	98.3921	59
98.0261	98.3921	71
98.0281	98.3921	83
98.0291	98.3921	65
98.0291	98.3891	67
98.0321	98.3921	55
98.3861	100.139	84
98.3861	100.139	72
98.3891	100.131	67
98.3891	100.139	64
98.3901	100.139	60
100.131	100.675	67
100.135	100.678	47
100.136	101.783	43
100.317	100.857	62
100.317	100.858	50
100.495	101.039	59
100.499	101.039	55
100.675	101.23	67
100.678	101.23	47
100.857	101.23	62
100.858	101.23	50
101.039	101.23	59
101.039	101.23	55
101.218	101.398	66
101.218	101.399	45
101.399	101.784	62
101.403	101.784	50
101.588	101.784	57
101.588	101.784	54
101.781	102.319	69
101.781	102.319	48
101.783	103.972	43
101.959	102.499	62
101.96	102.501	50
102.138	102.68	60
102.14	102.68	57
102.319	102.862	69
102.319	102.862	48
102.499	102.862	62
102.501	102.862	50
102.68	102.862	60
102.68	102.862	57
102.859	103.398	67
102.859	103.401	47
103.037	103.579	62
103.041	103.579	50
103.219	103.772	59
103.22	103.772	55
103.398	103.972	67
103.401	103.972	47
103.579	103.961	62
103.579	103.965	50
103.772	103.972	59
103.772	103.972	55
103.961	104.262	62
103.965	104.594	66
103.965	104.587	69
103.965	104.265	50
103.966	104.594	54
103.968	104.592	57
104.262	104.587	62
104.265	104.594	67
104.265	104.594	71
104.265	104.591	50
104.266	104.594	55
104.269	104.594	59
104.587	105.045	62
104.587	105.208	69
104.591	105.208	72
104.591	105.049	50
104.592	105.208	57
104.592	105.208	60
105.045	105.203	62
105.046	105.203	67
105.046	105.204	71
105.049	105.204	50
105.05	105.207	55
105.05	105.207	59
105.203	105.83	62
105.203	105.837	67
105.204	105.837	71
105.204	105.833	50
105.207	105.837	55
105.207	105.837	59
105.83	106.16	62
105.831	106.481	66
105.831	106.481	69
105.833	106.163	50
105.833	106.482	54
105.834	106.484	57
106.16	106.478	62
106.162	106.485	64
106.162	106.485	67
106.163	106.482	50
106.163	106.485	52
106.166	106.485	55
106.478	107.122	62
106.481	107.122	66
106.481	107.122	69
106.482	107.122	50
106.482	107.122	54
106.484	107.122	57
107.119	108.759	74
107.119	107.653	67
107.121	107.657	47
107.121	108.763	43
107.293	107.835	62
107.297	107.835	50
107.475	108.011	71
107.476	108.014	55
107.653	108.203	67
107.657	108.203	47
107.835	108.203	62
107.835	108.203	50
108.011	108.203	71
108.014	108.203	55
108.196	108.763	66
108.196	108.763	45
108.379	108.763	62
108.381	108.763	50
108.565	108.76	69
108.567	108.763	54
108.759	110.411	74
108.76	109.295	69
108.76	109.298	48
108.763	110.411	43
108.935	109.477	62
108.938	109.478	50
109.117	109.656	72
109.12	109.657	57
109.295	109.845	69
109.298	109.845	48
109.477	109.845	62
109.478	109.845	50
109.656	109.845	72
109.657	109.845	57
109.838	110.411	67
109.838	110.409	47
110.023	110.408	62
110.024	110.409	50
110.208	110.411	71
110.209	110.411	55
110.408	111.024	62
110.409	111.024	50
110.409	111.024	47
110.411	111.013	43
110.695	111.024	74
111.01	111.65	64
111.013	111.65	76
111.013	111.311	43
111.014	111.65	48
111.014	111.65	52
111.308	111.65	66
111.308	111.65	78
111.311	111.647	43
111.311	111.65	45
111.312	111.65	54
111.644	112.11	67
111.647	112.266	79
111.647	112.266	43
111.648	112.114	55
111.648	112.266	47
112.109	112.264	62
112.11	112.266	67
112.113	112.26	71
112.113	112.263	50
112.114	112.266	55
112.116	112.264	59
112.26	112.908	71
112.263	112.908	74
112.263	112.904	50
112.264	112.901	62
112.264	112.908	59
112.901	113.394	62
112.903	113.554	66
112.903	113.554	72
112.904	113.554	50
112.907	113.554	57
112.907	113.554	60
113.394	113.548	62
113.394	113.551	67
113.395	113.551	71
113.397	113.552	55
113.397	113.552	59
113.548	114.191	62
113.551	114.188	67
113.551	114.191	71
113.552	114.191	55
113.552	114.191	59
114.188	114.723	67
114.189	114.727	47
114.189	115.83	43
114.364	114.905	62
114.367	114.906	50
114.545	115.084	59
114.546	115.085	55
114.723	115.28	67
114.727	115.28	47
114.905	115.28	62
114.906	115.28	50
115.084	115.28	59
115.085	115.28	55
115.263	115.83	66
115.266	115.83	45
115.451	115.83	62
115.452	115.83	50
115.637	115.83	57
115.638	115.83	54
115.829	116.365	69
115.83	116.368	48
115.83	118.021	43
116.005	116.547	62
116.008	116.547	50
116.186	116.726	60
116.19	116.728	57
116.365	116.918	69
116.368	116.918	48
116.547	116.918	62
116.547	116.918	50
116.726	116.918	60
116.728	116.918	57
116.907	117.447	67
116.907	117.45	47
117.093	117.633	62
117.094	117.635	50
117.273	117.818	59
117.275	117.821	55
117.447	118.021	67
117.45	118.021	47
117.633	118.016	62
117.635	118.018	50
117.818	118.021	59
117.821	118.021	55
118.016	118.315	62
118.017	118.64	66
118.017	118.636	69
118.018	118.319	50
118.02	118.64	54
118.021	118.638	57
118.315	118.634	62
118.318	118.64	67
118.318	118.64	71
118.319	118.637	50
118.321	118.64	55
118.322	118.64	59
118.634	119.095	62
118.636	119.256	69
118.637	119.256	72
118.637	119.096	50
118.638	119.256	57
118.64	119.256	60
119.095	119.25	62
119.096	119.253	67
119.096	119.253	71
119.096	119.254	50
119.098	119.254	55
119.099	119.256	59
119.25	119.879	62
119.253	119.883	67
119.253	119.883	71
119.254	119.88	50
119.254	119.883	55
119.256	119.883	59
119.879	120.208	62
119.879	120.53	66
119.88	120.53	69
119.88	120.212	50
119.883	120.534	54
119.883	120.534	57
120.208	120.528	62
120.212	120.537	64
120.212	120.537	67
120.212	120.531	50
120.213	120.537	52
120.215	120.537	55
120.528	121.171	62
120.53	121.171	66
120.53	121.171	69
120.531	121.171	50
120.534	121.171	54
120.534	121.171	57
121.167	122.806	74
121.167	121.702	67
121.168	121.702	47
121.171	122.81	43
121.343	121.881	62
121.343	121.882	50
121.522	122.063	71
121.524	122.064	55
121.702	122.255	67
121.702	122.255	47
121.881	122.255	62
121.882	122.255	50
122.063	122.255	71
122.064	122.255	55
122.242	122.812	66
122.243	122.812	45
122.428	122.812	62
122.428	122.812	50
122.613	122.809	69
122.613	122.812	54
122.806	124.461	74
122.809	123.345	69
122.809	123.347	48
122.81	124.458	43
122.984	123.523	62
122.987	123.526	50
123.163	123.704	72
123.166	123.705	57
123.345	123.9	69
123.347	123.9	48
123.523	123.9	62
123.526	123.9	50
123.704	123.9	72
123.705	123.9	57
123.884	124.461	67
123.886	124.457	47
124.07	124.457	62
124.072	124.457	50
124.255	124.461	71
124.258	124.461	55
124.457	125.073	62
124.457	125.073	50
124.457	125.073	47
124.458	125.063	43
124.744	125.073	74
125.059	125.697	64
125.06	125.697	76
125.063	125.365	43
125.063	125.697	48
125.063	125.697	52
125.364	125.697	66
125.364	125.697	78
125.365	125.694	43
125.365	125.697	45
125.367	125.697	54
125.693	126.159	67
125.694	126.32	79
125.694	126.32	43
125.696	126.162	55
125.696	126.32	47
126.159	126.319	62
126.159	126.32	67
126.161	126.316	71
126.162	126.319	50
126.162	126.32	55
126.162	126.32	59
126.316	126.96	71
126.316	126.96	74
126.319	126.953	50
126.319	126.949	62
126.32	126.96	59
126.949	127.442	62
126.95	127.602	66
126.95	127.602	72
126.953	127.602	50
126.953	127.602	57
126.954	127.602	60
127.442	127.596	62
127.443	127.6	67
127.443	127.6	71
127.446	127.601	55
127.447	127.601	59
127.596	128.233	62
127.6	128.233	67
127.6	128.233	71
127.601	128.233	55
127.601	128.233	59
128.23	128.814	57
128.23	128.828	66
128.231	128.828	69
128.233	128.622	38
128.43	128.828	45
128.622	128.828	38
128.814	129.256	57
128.815	129.409	64
128.818	129.409	67
128.819	129.2	33
129.011	129.404	38
129.2	129.409	33
129.256	129.402	57
129.256	129.403	62
129.259	129.403	66
129.402	129.985	57
129.403	129.985	62
129.403	129.983	66
129.404	129.781	38
129.588	129.985	45
129.781	129.985	38
129.983	130.561	66
129.984	130.562	74
129.984	130.362	33
130.17	130.565	38
130.362	130.568	33
130.415	130.568	67
130.417	130.568	76
130.561	131.145	66
130.562	131.145	74
130.565	130.95	38
130.751	131.145	45
130.95	131.145	38
131.142	131.724	69
131.142	131.724	76
131.143	131.527	33
131.332	131.724	37
131.527	131.724	33
131.72	132.294	57
131.723	132.307	67
131.724	132.307	71
131.724	132.102	37
131.912	132.307	45
132.102	132.307	37
132.294	132.721	57
132.294	132.875	66
132.294	132.875	69
132.297	132.672	33
132.479	132.864	37
132.672	132.875	33
132.721	132.861	57
132.721	132.862	64
132.724	132.864	67
132.861	133.463	57
132.862	133.463	64
132.864	133.463	67
132.864	133.246	37
133.049	133.463	45
133.246	133.463	37
133.46	134.037	69
133.46	134.04	76
133.463	133.844	33
133.652	134.041	37
133.844	134.047	33
133.892	134.047	74
133.893	134.047	78
134.037	134.617	69
134.04	134.617	76
134.041	134.419	37
134.226	134.617	45
134.419	134.617	37
134.614	135.203	74
134.615	135.206	78
134.615	135	33
134.803	135.206	38
135	135.206	33
135.202	135.79	66
135.203	135.79	74
135.206	135.594	38
135.395	135.79	45
135.594	135.79	38
135.787	136.392	69
135.787	136.403	73
135.788	136.186	33
135.98	136.392	38
136.081	136.403	67
136.084	136.403	71
136.186	136.403	33
136.389	136.988	57
136.392	136.991	66
136.392	136.991	69
136.392	136.788	38
136.592	136.991	45
136.788	136.991	38
136.988	137.289	57
136.99	137.606	64
136.99	137.6	67
136.991	137.386	33
137.184	137.606	38
137.289	137.599	57
137.291	137.606	62
137.292	137.606	66
137.386	137.606	33
137.599	138.202	57
137.6	138.206	67
137.6	138.206	71
137.603	137.996	37
137.796	138.206	45
137.996	138.206	37
138.202	138.508	57
138.202	138.818	66
138.205	138.821	69
138.206	138.612	33
138.407	138.821	37
138.508	138.821	57
138.51	138.821	64
138.51	138.821	67
138.612	138.821	33
138.817	139.438	62
138.818	139.451	66
138.818	139.228	38
139.024	139.451	45
139.129	139.451	57
139.13	139.451	64
139.228	139.451	38
139.438	140.627	54
139.438	140.627	62
139.44	139.825	33
139.633	140.015	38
139.825	140.627	33
140.015	140.411	38
140.214	140.627	45
140.411	140.627	38
140.62	141.205	57
140.624	141.208	66
140.624	141.208	69
140.627	141.002	33
140.81	141.208	38
141.002	141.208	33
141.205	141.639	57
141.205	141.792	64
141.206	141.792	67
141.206	141.792	35
141.391	141.792	38
141.583	141.786	36
141.639	141.783	57
141.639	141.785	62
141.64	141.786	66
141.783	142.364	57
141.785	142.368	62
141.786	142.366	66
141.786	142.168	36
141.971	142.368	38
142.168	142.368	36
142.364	142.944	57
142.366	142.965	66
142.367	142.965	69
142.367	142.749	33
142.552	142.965	38
142.749	142.965	33
142.944	143.379	57
142.944	143.536	64
142.948	143.536	67
142.948	143.536	35
143.133	143.536	38
143.33	143.529	36
143.379	143.525	57
143.381	143.526	62
143.382	143.529	66
143.525	144.139	57
143.526	144.135	62
143.529	144.138	66
143.529	143.921	36
143.718	144.139	38
143.921	144.139	36
144.134	144.725	72
144.135	144.716	62
144.138	144.725	66
144.139	144.516	33
144.324	144.725	38
144.516	144.725	33
144.716	145.299	67
144.716	145.153	62
144.716	145.299	71
144.718	145.299	35
144.901	145.299	38
145.101	145.298	36
145.149	145.296	69
145.153	145.297	62
145.153	145.297	66
145.296	145.916	69
145.297	145.913	62
145.297	145.916	66
145.298	145.692	36
145.485	145.916	38
145.692	145.916	36
145.913	146.521	62
145.913	146.528	72
145.913	146.528	76
145.916	146.315	38
146.112	146.528	50
146.315	146.528	38
146.521	146.994	62
146.522	147.158	71
146.522	147.158	74
146.522	147.158	40
146.728	147.158	50
146.935	147.156	42
146.994	147.155	62
146.998	147.156	69
146.998	147.155	72
147.155	147.788	62
147.155	147.788	72
147.156	147.789	69
147.156	147.568	42
147.358	147.789	50
147.568	147.789	42
147.785	148.405	57
147.788	148.402	62
147.788	148.405	72
147.789	148.188	42
147.987	148.405	50
148.188	148.405	42
148.401	149.031	59
148.402	148.867	62
148.404	149.031	71
148.405	148.81	50
148.601	149.02	42
148.81	149.031	50
148.866	149.017	60
148.867	149.018	62
148.867	149.018	69
149.017	151.307	60
149.018	151.307	62
149.018	151.307	69
149.02	149.416	42
149.21	149.611	50
149.416	149.798	42
149.611	149.984	50
149.798	150.176	42
149.984	150.361	50
150.176	150.553	42
150.361	150.739	50
150.553	150.921	42
150.739	151.114	50
150.921	151.307	42
151.114	151.307	50
151.303	151.842	67
151.306	151.842	46
151.307	152.948	43
151.481	152.021	62
151.484	152.023	50
151.66	152.202	58
151.663	152.202	55
151.842	152.398	67
151.842	152.398	46
152.021	152.398	62
152.023	152.398	50
152.202	152.398	58
152.202	152.398	55
152.388	152.954	66
152.391	152.954	45
152.567	152.954	62
152.569	152.954	50
152.752	152.954	57
152.755	152.954	54
152.947	153.49	69
152.947	153.49	48
152.948	155.139	43
153.125	153.669	62
153.126	153.672	50
153.304	153.85	60
153.308	153.851	57
153.49	154.039	69
153.49	154.039	48
153.669	154.039	62
153.672	154.039	50
153.85	154.039	60
153.851	154.039	57
154.033	154.571	67
154.033	154.571	46
154.208	154.75	62
154.211	154.75	50
154.39	154.936	58
154.392	154.939	55
154.571	155.139	67
154.571	155.139	46
154.75	155.132	62
154.75	155.136	50
154.936	155.139	58
154.939	155.139	55
155.132	155.433	62
155.135	155.765	66
155.136	155.761	69
155.136	155.436	50
155.136	155.765	54
155.138	155.763	57
155.433	155.758	62
155.435	155.765	67
155.436	155.765	70
155.436	155.762	50
155.436	155.765	55
155.439	155.765	58
155.758	156.206	62
155.761	156.363	69
155.762	156.363	72
155.762	156.209	50
155.763	156.363	57
155.764	156.363	60
156.206	156.355	62
156.207	156.356	67
156.209	156.356	70
156.209	156.358	50
156.21	156.359	55
156.21	156.362	58
156.355	156.982	62
156.356	156.989	67
156.356	156.989	70
156.358	156.986	50
156.359	156.989	55
156.362	156.989	58
156.982	157.311	62
156.983	157.633	66
156.985	157.636	69
156.986	157.315	50
156.986	157.637	54
156.988	157.638	57
157.311	157.633	62
157.314	157.643	64
157.315	157.643	67
157.315	157.637	50
157.315	157.643	52
157.317	157.643	55
157.633	158.276	62
157.633	158.276	66
157.636	158.276	69
157.637	158.276	50
157.637	158.276	54
157.638	158.276	57
158.27	159.912	74
158.273	158.806	67
158.274	158.809	47
158.274	159.915	43
158.446	158.984	62
158.448	158.988	50
158.627	159.166	71
158.627	159.169	55
158.806	159.355	67
158.809	159.355	47
158.984	159.355	62
158.988	159.355	50
159.166	159.355	71
159.169	159.355	55
159.345	159.918	66
159.348	159.918	45
159.531	159.918	62
159.534	159.918	50
159.719	159.912	69
159.72	159.918	54
159.912	161.571	74
159.912	160.457	69
159.914	160.457	48
159.915	161.57	43
160.09	160.635	62
160.09	160.636	50
160.269	160.815	72
160.271	160.818	57
160.457	160.997	69
160.457	160.997	48
160.635	160.997	62
160.636	160.997	50
160.815	160.997	72
160.818	160.997	57
160.996	161.571	67
160.997	161.568	47
161.18	161.567	62
161.182	161.567	50
161.36	161.571	71
161.361	161.571	55
161.567	162.179	62
161.567	162.179	50
161.568	162.179	47
161.57	162.173	43
161.847	162.179	74
162.169	162.803	64
162.173	162.803	76
162.173	162.468	43
162.173	162.803	48
162.174	162.803	52
162.467	162.803	66
162.467	162.803	78
162.468	162.799	43
162.47	162.803	45
162.47	162.803	54
162.799	163.264	67
162.799	163.426	79
162.799	163.426	43
162.8	163.265	55
162.803	163.426	47
163.262	163.419	62
163.264	163.426	67
163.265	163.422	71
163.265	163.422	50
163.265	163.426	55
163.268	163.426	59
163.419	164.052	62
163.422	164.059	71
163.422	164.059	74
163.422	164.056	50
163.426	164.059	59
164.052	164.546	62
164.053	164.714	66
164.056	164.714	72
164.056	164.714	50
164.058	164.714	57
164.059	164.714	60
164.546	164.707	62
164.549	164.708	67
164.549	164.71	71
164.55	164.71	55
164.55	164.711	59
164.707	165.351	62
164.708	165.351	67
164.71	165.351	71
164.71	165.351	55
164.711	165.351	59
165.347	165.928	57
165.347	165.931	66
165.348	165.931	69
165.351	165.725	38
165.536	165.931	45
165.725	165.931	38
165.928	166.359	57
165.929	166.51	64
165.929	166.51	67
165.929	166.31	33
166.114	166.51	38
166.31	166.51	33
166.359	166.506	57
166.362	166.509	62
166.362	166.509	66
166.506	167.09	57
166.509	167.09	62
166.509	167.087	66
166.51	166.891	38
166.695	167.09	45
166.891	167.09	38
167.087	167.668	66
167.087	167.668	74
167.088	167.472	33
167.275	167.669	38
167.472	167.671	33
167.52	167.671	67
167.521	167.671	76
167.668	168.248	66
167.668	168.248	74
167.669	168.053	38
167.861	168.248	45
168.053	168.248	38
168.246	168.83	69
168.248	168.83	76
168.248	168.634	33
168.442	168.829	37
168.634	168.83	33
168.826	169.403	57
168.827	169.408	67
168.829	169.408	71
168.829	169.207	37
169.015	169.408	45
169.207	169.408	37
169.403	169.827	57
169.404	169.981	66
169.407	169.981	69
169.408	169.778	33
169.586	169.974	37
169.778	169.981	33
169.827	169.971	57
169.827	169.974	64
169.828	169.974	67
169.971	170.573	57
169.974	170.573	64
169.974	170.573	67
169.974	170.356	37
170.156	170.573	45
170.356	170.573	37
170.569	171.143	69
170.57	171.144	76
170.573	170.947	33
170.759	171.146	37
170.947	171.15	33
170.996	171.15	74
171	171.15	78
171.143	171.731	69
171.144	171.731	76
171.146	171.526	37
171.333	171.731	45
171.526	171.731	37
171.72	172.309	74
171.721	172.313	78
171.721	172.105	33
171.906	172.31	38
172.105	172.313	33
172.309	172.903	66
172.309	172.903	74
172.31	172.698	38
172.498	172.903	45
172.698	172.903	38
172.892	173.496	69
172.893	173.509	73
172.893	173.289	33
173.085	173.499	38
173.184	173.509	67
173.187	173.509	71
173.289	173.509	33
173.495	174.101	57
173.495	174.104	66
173.496	174.104	69
173.499	173.893	38
173.695	174.104	45
173.893	174.104	38
174.101	174.399	57
174.101	174.709	64
174.102	174.706	67
174.102	174.489	33
174.294	174.709	38
174.399	174.703	57
174.401	174.709	62
174.401	174.709	66
174.489	174.709	33
174.703	175.308	57
174.706	175.318	67
174.706	175.318	71
174.707	175.098	37
174.903	175.318	45
175.098	175.318	37
175.308	175.612	57
175.309	175.928	66
175.309	175.932	69
175.311	175.718	33
175.511	175.932	37
175.612	175.932	57
175.616	175.932	64
175.616	175.932	67
175.718	175.932	33
175.928	176.544	62
175.928	176.554	66
175.931	176.338	38
176.127	176.554	45
176.233	176.554	57
176.235	176.554	64
176.338	176.554	38
176.542	177.73	54
176.544	177.73	62
176.544	176.929	33
176.736	177.127	38
176.929	177.729	33
177.127	177.514	38
177.318	177.73	45
177.514	177.73	38
177.727	178.308	57
177.727	178.322	66
177.728	178.322	69
177.729	178.112	33
177.916	178.322	38
178.112	178.322	33
178.308	178.742	57
178.309	178.902	64
178.311	178.902	67
178.311	178.902	35
178.497	178.902	38
178.693	178.892	36
178.742	178.888	57
178.742	178.889	62
178.744	178.889	66
178.888	179.47	57
178.889	179.474	62
178.889	179.47	66
178.892	179.274	36
179.081	179.474	38
179.274	179.474	36
179.47	180.051	57
179.47	180.054	66
179.473	180.054	69
179.474	179.855	33
179.662	180.054	38
179.855	180.054	33
180.051	180.484	57
180.051	180.642	64
180.052	180.642	67
180.052	180.642	35
180.243	180.642	38
180.436	180.639	36
180.484	180.635	57
180.485	180.639	62
180.485	180.639	66
180.635	181.244	57
180.639	181.242	62
180.639	181.242	66
180.639	181.027	36
180.825	181.244	38
181.027	181.244	36
181.241	181.825	72
181.242	181.821	62
181.242	181.825	66
181.244	181.626	33
181.429	181.825	38
181.626	181.825	33
181.821	182.406	67
181.821	182.256	62
181.822	182.406	71
181.822	182.406	35
182.007	182.406	38
182.207	182.403	36
182.253	182.4	69
182.256	182.402	62
182.256	182.402	66
182.4	183.019	69
182.402	183.016	62
182.402	183.019	66
182.403	182.799	36
182.595	183.019	38
182.799	183.019	36
183.016	183.627	62
183.018	183.638	72
183.019	183.638	76
183.019	183.418	38
183.215	183.638	50
183.418	183.638	38
183.627	184.1	62
183.628	184.261	71
183.628	184.261	74
183.629	184.261	40
183.838	184.261	50
184.047	184.261	42
184.1	184.258	62
184.101	184.26	69
184.103	184.258	72
184.258	184.892	62
184.258	184.892	72
184.26	184.895	69
184.261	184.671	42
184.464	184.895	50
184.671	184.895	42
184.891	185.514	57
184.892	185.507	62
184.892	185.514	72
184.895	185.298	42
185.09	185.511	50
185.298	185.514	42
185.507	186.134	59
185.507	185.97	62
185.508	186.134	71
185.511	185.914	50
185.713	186.131	42
185.914	186.134	50
185.969	186.127	60
185.97	186.13	62
185.97	186.13	69
186.127	188.412	60
186.13	188.412	62
186.13	188.412	69
186.131	186.519	42
186.32	186.716	50
186.519	186.903	42
186.716	187.089	50
186.903	187.279	42
187.089	187.464	50
187.279	187.657	42
187.464	187.842	50
187.657	188.035	42
187.842	188.219	50
188.035	188.412	42
188.219	188.412	50
188.409	188.952	67
188.41	188.954	46
188.412	190.058	43
188.587	189.133	62
188.588	189.134	50
188.773	189.311	58
188.773	189.312	55
188.952	189.5	67
188.954	189.5	46
189.133	189.5	62
189.134	189.5	50
189.311	189.5	58
189.312	189.5	55
189.494	190.061	66
189.494	190.061	45
189.677	190.061	62
189.679	190.061	50
189.858	190.061	57
189.858	190.061	54
190.057	190.596	69
190.057	190.597	48
190.058	192.248	43
190.235	190.775	62
190.236	190.776	50
190.414	190.954	60
190.417	190.957	57
190.596	191.149	69
190.597	191.149	48
190.775	191.149	62
190.776	191.149	50
190.954	191.149	60
190.957	191.149	57
191.136	191.675	67
191.136	191.678	46
191.315	191.856	62
191.317	191.857	50
191.495	192.043	58
191.496	192.044	55
191.675	192.248	67
191.678	192.248	46
191.856	192.238	62
191.857	192.241	50
192.043	192.248	58
192.044	192.248	55
192.238	192.538	62
192.239	192.871	66
192.241	192.864	69
192.241	192.539	50
192.242	192.871	54
192.245	192.867	57
192.538	192.861	62
192.539	192.871	67
192.539	192.871	70
192.539	192.867	50
192.542	192.871	55
192.543	192.871	58
192.861	193.31	62
192.864	193.467	69
192.865	193.467	72
192.867	193.312	50
192.867	193.467	57
192.868	193.467	60
193.31	193.46	62
193.311	193.462	67
193.312	193.463	70
193.312	193.466	50
193.316	193.467	55
193.316	193.467	58
193.46	194.086	62
193.462	194.093	67
193.463	194.093	70
193.466	194.09	50
193.467	194.093	55
193.467	194.093	58
194.086	194.425	62
194.089	194.741	66
194.09	194.741	69
194.09	194.429	50
194.092	194.743	54
194.093	194.744	57
194.425	194.737	62
194.426	194.747	64
194.428	194.747	67
194.429	194.741	50
194.429	194.747	52
194.432	194.747	55
194.737	195.381	62
194.741	195.381	66
194.741	195.381	69
194.741	195.381	50
194.743	195.381	54
194.744	195.381	57
195.377	197.023	74
195.378	195.92	67
195.378	195.92	47
195.38	197.026	43
195.553	196.098	62
195.553	196.099	50
195.738	196.28	71
195.739	196.281	55
195.92	196.473	67
195.92	196.473	47
196.098	196.473	62
196.099	196.473	50
196.28	196.473	71
196.281	196.473	55
196.456	197.029	66
196.459	197.029	45
196.644	197.029	62
196.645	197.029	50
196.823	197.025	69
196.826	197.029	54
197.023	198.675	74
197.025	197.561	69
197.026	197.562	48
197.026	198.675	43
197.201	197.741	62
197.204	197.743	50
197.38	197.922	72
197.382	197.922	57
197.561	198.111	69
197.562	198.111	48
197.741	198.111	62
197.743	198.111	50
197.922	198.111	72
197.922	198.111	57
198.101	198.675	67
198.104	198.674	47
198.286	198.67	62
198.287	198.671	50
198.471	198.675	71
198.475	198.675	55
198.67	199.283	62
198.671	199.283	50
198.674	199.283	47
198.675	199.277	43
198.955	199.283	74
199.276	199.909	64
199.277	199.909	76
199.277	199.574	43
199.279	199.909	48
199.28	199.909	52
199.573	199.909	66
199.574	199.909	78
199.574	199.906	43
199.575	199.909	45
199.578	199.909	54
199.903	200.369	67
199.904	200.53	79
199.906	200.53	43
199.907	200.373	55
199.907	200.53	47
200.369	200.529	62
200.369	200.53	67
200.372	200.526	71
200.372	200.527	50
200.373	200.53	55
200.373	200.53	59
200.526	201.169	71
200.526	201.169	74
200.527	201.162	50
200.529	201.159	62
200.53	201.169	59
201.159	201.65	62
201.16	201.818	66
201.16	201.818	72
201.162	201.818	50
201.163	201.818	57
201.163	201.818	60
201.65	201.814	62
201.653	201.814	67
201.654	201.815	71
201.654	201.817	55
201.656	201.818	59
201.814	202.456	62
201.814	202.455	67
201.815	202.456	71
201.817	202.456	55
201.818	202.456	59
202.451	203.035	64
202.455	203.033	67
202.455	203.035	72
202.456	202.833	43
202.64	203.035	55
202.833	203.035	43
203.032	203.623	62
203.033	203.469	67
203.033	203.623	71
203.035	203.417	55
203.22	203.616	43
203.417	203.623	55
203.466	203.613	60
203.469	203.614	67
203.47	203.614	69
203.613	204.194	60
203.614	204.194	67
203.614	204.194	69
203.616	203.998	43
203.799	204.194	55
203.998	204.194	43
204.193	204.774	62
204.194	204.785	71
204.194	204.579	43
204.38	204.775	55
204.579	204.785	43
204.772	205.359	60
204.774	205.209	62
204.775	205.359	69
204.775	205.16	55
204.967	205.356	43
205.16	205.359	55
205.206	205.353	59
205.209	205.355	62
205.21	205.356	67
205.353	205.955	59
205.355	205.952	62
205.356	205.955	67
205.356	205.745	43
205.549	205.955	55
205.745	205.955	43
205.951	206.549	60
205.952	206.533	62
205.954	206.549	69
205.954	206.336	31
206.146	206.536	43
206.336	206.549	31
206.533	207.123	59
206.533	207.123	62
206.535	207.123	67
206.536	206.917	43
206.725	207.116	31
206.917	207.123	43
206.966	207.112	57
206.966	207.113	60
206.97	207.113	66
207.112	207.704	57
207.113	207.704	60
207.113	207.704	66
207.116	207.498	31
207.306	207.704	43
207.498	207.701	31
207.698	208.286	59
207.701	208.286	67
207.701	208.079	31
207.886	208.282	43
208.079	208.286	31
208.278	208.863	57
208.279	208.863	62
208.282	208.667	43
208.468	208.86	31
208.667	208.863	43
208.713	208.859	55
208.713	208.86	59
208.859	209.452	55
208.86	209.455	59
208.86	209.245	31
209.049	209.455	43
209.245	209.455	31
209.452	210.056	55
209.452	210.061	62
209.454	210.061	65
209.455	209.85	31
209.651	210.06	43
209.85	210.061	31
210.056	210.501	55
210.057	210.665	60
210.06	210.665	64
210.06	210.448	43
210.249	210.658	31
210.448	210.665	43
210.501	210.652	55
210.502	210.655	59
210.504	210.655	62
210.652	211.255	55
210.655	211.25	59
210.655	211.255	62
210.658	211.051	31
210.848	211.255	43
211.051	211.254	31
211.25	211.845	59
211.254	211.856	69
211.254	211.856	65
211.254	211.642	31
211.446	211.849	43
211.642	211.856	31
211.845	212.286	59
211.845	212.434	67
211.846	212.434	64
211.849	212.23	43
212.038	212.433	31
212.23	212.434	43
212.285	212.433	62
212.286	212.433	59
212.286	212.43	65
212.43	213.031	65
212.433	213.029	59
212.433	213.032	62
212.433	212.822	31
212.619	213.032	43
212.822	213.031	31
213.028	214.358	69
213.029	215.142	59
213.031	215.143	65
213.031	213.455	31
213.238	213.669	43
213.455	213.889	31
213.669	214.11	43
213.889	214.34	31
214.001	214.358	68
214.11	214.358	43
214.338	215.146	67
214.34	214.859	31
214.593	215.145	43
214.718	215.142	69
214.859	215.146	31
215.142	217.69	69
215.142	217.69	59
215.143	217.69	65
215.145	217.69	43
215.146	217.69	50
216.013	217.69	67
217.691	218.226	67
217.694	218.229	55
218.155	218.236	69
218.156	218.236	57
218.226	218.743	67
218.229	218.744	55
218.401	218.75	64
218.403	218.75	52
218.572	218.75	60
218.572	218.75	48
218.743	219.335	67
218.744	219.335	55
219.167	219.325	76
219.17	219.326	64
219.325	220.518	76
219.326	220.518	64
220.501	220.794	72
220.504	220.798	60
221.092	221.648	67
221.568	221.648	65
221.635	222.191	64
221.813	222.18	60
221.999	222.191	55
222.18	222.712	60
222.355	222.709	64
222.534	222.71	67
222.706	222.853	55
222.709	222.853	64
222.71	222.854	67
222.712	222.856	43
222.996	223.136	55
222.997	223.136	62
222.997	223.137	65
222.999	223.139	45
223.139	223.268	47
223.273	223.381	55
223.273	223.382	60
223.273	223.382	64
223.274	223.382	48
223.56	223.671	55
223.56	223.672	59
223.563	223.672	62
223.563	223.675	43
223.85	223.993	55
223.85	223.994	60
223.851	223.997	64
223.854	224	48
224.424	224.57	55
224.424	224.571	63
224.425	224.571	67
224.427	224.714	43
224.714	224.855	55
224.718	224.855	62
224.718	224.855	65
224.719	224.858	45
224.858	224.994	47
224.995	225.103	55
224.995	225.107	60
224.998	225.107	63
224.999	225.138	48
225.278	225.386	55
225.279	225.39	59
225.279	225.39	62
225.282	225.393	43
225.561	225.673	55
225.562	225.674	60
225.565	225.674	63
225.565	225.677	48
225.852	225.95	58
225.852	225.951	62
225.852	225.953	65
225.856	225.953	46
226.125	226.398	58
226.129	226.405	62
226.129	226.405	65
226.129	226.405	46
226.398	226.601	58
226.398	226.602	63
226.399	226.604	67
226.402	226.605	51
226.671	226.958	58
226.672	226.958	63
226.674	226.958	67
226.674	226.958	51
226.954	227.164	62
226.955	227.165	66
226.955	227.165	69
226.958	227.167	50
227.234	227.518	62
227.235	227.524	66
227.235	227.524	69
227.238	227.524	50
227.518	227.728	62
227.518	227.728	67
227.518	227.729	70
227.522	227.732	55
227.797	228.086	62
227.798	228.089	67
227.798	228.105	70
227.802	228.092	55
228.086	228.442	62
228.089	228.446	67
228.089	228.446	71
228.089	228.446	43
228.09	228.447	53
228.092	228.449	55
228.442	229.789	62
228.446	229.789	67
228.446	229.426	71
228.446	229.426	43
228.447	229.789	53
228.449	229.429	55
229.422	229.789	65
229.426	229.789	71
229.426	229.789	77
229.426	229.789	43
229.427	229.789	50
229.429	229.782	55
229.776	231.547	64
229.779	231.547	72
229.779	231.547	76
229.779	231.547	48
229.782	231.547	55
231.547	232.107	76
232.036	232.109	77
232.107	232.662	76
232.284	232.652	72
232.467	232.662	69
232.579	232.662	74
232.652	233.212	72
232.832	233.209	69
233.009	233.208	64
233.208	233.769	64
233.209	233.775	69
233.212	233.775	72
233.212	233.772	52
233.488	233.769	68
233.488	233.771	71
233.695	233.775	53
233.769	234.408	68
233.769	234.083	64
233.771	234.409	71
233.772	234.409	52
233.975	234.412	47
234.08	234.412	66
234.083	234.407	64
234.084	234.412	69
234.181	234.412	40
234.407	234.993	64
234.408	234.997	68
234.409	234.997	71
234.409	234.997	52
235	235.574	64
235.001	235.574	67
235.001	235.581	72
235.003	235.578	52
235.287	235.575	71
235.501	235.581	53
235.574	235.886	64
235.574	235.889	67
235.575	236.18	71
235.578	236.183	52
235.78	236.183	55
235.886	236.183	64
235.889	236.176	67
235.889	236.183	72
235.977	236.183	60
236.176	236.81	67
236.18	236.81	71
236.18	236.81	65
236.181	236.81	62
236.481	236.81	77
236.789	237.408	76
236.789	237.408	64
236.79	237.408	60
237.325	237.408	74
237.401	238.031	72
237.402	237.709	66
237.404	237.71	62
237.601	238.01	71
237.709	238.031	66
237.71	238.013	62
237.807	238.031	69
238.01	238.647	71
238.013	238.648	62
238.014	238.65	55
238.014	238.65	67
238.651	239.157	71
238.651	239.158	59
239.158	239.221	72
239.161	239.222	60
239.222	239.655	71
239.225	239.655	59
239.397	239.655	67
239.4	239.655	55
239.565	239.711	64
239.567	239.715	52
239.76	240.183	79
239.76	240.183	67
240.041	240.183	76
240.044	240.183	64
240.362	240.855	71
240.366	240.859	59
240.86	240.922	72
240.86	240.923	60
240.925	241.318	71
240.926	241.318	59
241.097	241.318	67
241.101	241.318	55
241.266	241.409	64
241.268	241.409	52
241.461	241.895	79
241.462	241.895	67
241.738	241.895	76
241.738	241.895	64
242.035	242.42	83
242.035	242.42	75
242.039	242.42	78
242.039	242.42	47
242.326	242.423	71
242.327	242.426	59
242.528	242.592	81
242.529	242.595	63
242.595	242.766	79
242.596	242.767	64
242.767	242.931	78
242.771	242.931	66
242.935	243.137	76
242.935	243.141	67
243.142	243.505	83
243.142	243.505	75
243.144	243.505	78
243.145	243.505	47
243.429	243.529	71
243.43	243.53	59
243.631	243.698	81
243.635	243.698	63
243.698	243.865	79
243.701	243.866	64
243.866	244.027	78
243.869	244.027	66
244.028	244.219	76
244.03	244.219	67
244.22	244.677	83
244.223	244.677	75
244.223	244.677	78
244.224	244.677	47
244.506	244.677	71
244.509	244.677	59
244.796	245.252	95
244.8	245.252	35
245.109	245.252	83
245.111	245.252	47
247.05	247.485	79
247.051	247.485	64
247.331	247.485	76
247.335	247.485	67
247.621	247.985	79
247.622	247.985	64
247.901	248.044	76
247.902	248.045	67
248.185	248.643	79
248.185	248.643	64
248.469	248.643	76
248.472	248.643	67
248.752	249.182	79
248.752	249.182	64
249.035	249.182	76
249.036	249.182	67
249.318	249.767	79
249.323	249.767	64
249.603	249.767	76
249.604	249.767	67
249.885	250.361	79
249.886	250.361	64
250.166	250.361	76
250.167	250.361	67
250.453	250.996	79
250.456	250.992	76
250.456	250.996	55
250.723	250.998	67
250.922	250.998	57
250.992	251.535	76
250.996	251.537	79
250.996	251.538	55
251.174	251.551	52
251.269	251.551	67
251.353	251.551	48
251.535	252.122	76
251.537	252.123	79
251.538	252.126	55
251.822	252.126	67
251.964	252.123	64
252.122	252.7	76
252.123	252.7	79
252.123	253.641	64
252.417	252.987	67
252.7	253.274	76
252.7	253.277	79
252.987	253.564	67
253.274	253.641	76
253.277	253.641	79
253.277	253.641	60
253.564	253.697	67
253.84	254.387	67
254.32	254.394	69
254.387	254.919	67
254.569	254.929	64
254.744	254.929	60
254.919	255.513	67
255.342	255.506	76
255.506	256.599	76
255.507	256.046	55
255.976	256.05	57
256.046	256.588	55
256.225	256.599	52
256.407	256.599	48
256.586	257.176	72
256.588	257.176	55
257.009	257.155	64
257.152	257.708	79
257.155	258.244	64
257.628	257.708	77
257.698	258.244	76
257.881	258.24	72
258.059	258.244	67
258.24	258.79	72
258.241	258.79	60
258.419	258.787	76
258.597	258.787	79
258.786	258.923	67
258.787	258.923	76
258.787	258.926	79
258.79	258.926	43
259.066	259.203	67
259.069	259.203	74
259.07	259.204	77
259.073	259.204	45
259.206	259.336	47
259.336	259.444	67
259.34	259.445	72
259.34	259.448	76
259.34	259.448	48
259.619	259.731	67
259.62	259.732	71
259.623	259.732	74
259.623	259.732	43
259.917	260.053	67
259.917	260.054	72
259.918	260.056	76
259.918	260.06	48
260.491	260.781	67
260.491	260.634	51
260.492	260.638	55
260.781	260.922	69
260.782	260.922	50
260.785	260.923	53
260.785	260.925	55
260.925	261.058	71
261.059	261.17	72
261.061	261.17	48
261.061	261.171	51
261.065	261.173	55
261.355	261.467	67
261.356	261.467	47
261.358	261.468	50
261.359	261.468	55
261.645	261.751	72
261.646	261.752	48
261.646	261.752	51
261.649	261.754	55
261.93	262.062	70
261.93	262.062	82
261.933	262.066	50
261.933	262.066	53
261.933	262.067	58
262.203	262.331	70
262.203	262.332	82
262.203	262.332	53
262.206	262.335	56
262.206	262.336	58
262.468	262.608	87
262.472	262.612	75
262.472	262.612	51
262.475	262.612	55
262.475	262.615	58
262.755	262.895	87
262.755	262.896	75
262.756	262.896	51
262.759	262.897	55
262.759	262.898	58
263.032	263.172	86
263.033	263.172	74
263.035	263.172	54
263.035	263.176	57
263.039	263.176	62
263.319	263.462	74
263.32	263.462	86
263.32	263.463	57
263.32	263.466	60
263.322	263.466	62
263.602	263.753	91
263.603	263.753	79
263.603	263.756	55
263.604	263.756	58
263.605	263.757	62
263.896	264.043	79
263.9	264.043	91
263.9	264.044	55
263.903	264.047	58
263.904	264.047	62
264.193	264.351	89
264.194	264.351	77
264.194	264.355	43
264.198	264.355	50
264.198	264.356	59
264.501	265.969	89
264.502	265.969	77
264.502	265.969	43
264.506	265.969	50
264.506	265.969	59
265.594	265.969	71
265.595	265.969	83
265.595	265.969	65
265.597	265.966	67
265.597	265.969	55
265.962	267.729	84
265.965	267.729	72
265.966	267.729	67
265.968	267.729	64
265.968	267.729	60
