OnsetTime	OffsetTime	MidiPitch
0.517989	0.826	73
0.517989	0.826	61
0.826993	1.15099	71
0.828991	1.15099	59
1.15499	2.39999	76
1.15599	2.40099	64
1.76999	2.40099	68
1.77399	2.40099	71
1.77399	2.40399	59
1.77698	2.40399	52
2.40499	2.70799	80
2.40699	2.70898	68
2.70898	3.01998	83
2.70999	3.02398	71
3.02398	3.32799	85
3.02498	3.32899	73
3.32899	3.65298	83
3.33098	3.65399	71
3.65399	4.90297	80
3.65799	4.27697	68
4.27398	4.90397	71
4.27697	4.90397	68
4.27697	4.90497	52
4.28098	4.90596	59
4.90697	5.21398	76
4.90697	5.21797	64
5.21897	5.52597	73
5.21897	5.52998	61
5.53297	5.84098	80
5.53398	5.84198	68
5.84397	6.16298	78
5.84498	6.16398	66
6.16398	7.41596	73
6.16498	7.41596	61
6.78597	7.41696	66
6.78996	7.41696	69
6.78996	7.41996	59
6.79196	7.41996	52
7.42095	7.72096	73
7.42295	7.72395	61
7.72395	8.03596	71
7.72795	8.03596	59
8.03895	8.35096	78
8.03895	8.35096	66
8.35096	8.66896	76
8.35396	8.66896	64
8.67296	9.92897	71
8.67296	9.92897	59
9.30295	9.93296	68
9.30295	9.93296	64
9.30396	9.93396	52
9.30596	9.93396	56
9.93595	10.241	70
9.93595	10.244	58
10.244	10.563	71
10.245	10.563	59
10.564	10.871	73
10.566	10.871	61
10.872	11.189	71
10.874	11.189	59
11.193	12.435	76
11.193	12.4359	64
11.808	12.4379	68
11.809	12.4379	71
11.812	12.442	59
11.813	12.442	52
12.443	12.75	80
12.4449	12.751	68
12.751	13.0579	83
12.753	13.0589	71
13.0589	13.366	85
13.0609	13.3669	73
13.3669	13.695	83
13.368	13.6959	71
13.6979	14.9439	80
13.6989	14.3119	68
14.3119	14.9449	68
14.3139	14.9479	71
14.3149	14.9489	52
14.3149	14.9489	59
14.9489	15.2559	76
14.9509	15.2599	64
15.2599	15.5719	73
15.2599	15.5719	61
15.5719	15.8829	71
15.5749	15.8829	59
15.8869	16.2079	75
15.8899	16.2119	63
16.2119	17.4649	83
16.2119	16.8349	71
16.8309	17.4649	75
16.8349	17.4659	71
16.8349	17.4679	56
16.8349	17.4679	51
16.8359	17.4679	59
17.4689	17.7759	82
17.4709	17.7799	70
17.7799	18.0979	80
17.7809	18.0979	68
18.0989	18.7249	76
18.0989	18.7249	64
18.7259	19.3729	70
18.7279	19.3729	67
18.7279	19.3729	75
18.7289	19.3729	58
18.7289	19.3689	63
18.7319	19.3729	51
19.0439	19.3689	73
19.0469	19.3719	61
19.3689	20.0409	73
19.3689	20.0349	63
19.3699	20.0409	68
19.3719	20.0409	61
19.3719	20.0409	56
19.6839	20.0409	71
19.6849	20.0339	59
19.9259	20.6709	44
19.9779	20.6709	51
20.0339	20.6719	59
20.0339	20.4989	70
20.0349	20.6719	63
20.0349	20.4989	58
20.3519	20.6739	68
20.3519	20.6739	56
20.6749	20.9859	69
20.9889	21.3149	65
21.3149	22.2679	66
21.4679	22.5709	42
21.6259	22.5709	49
21.7909	22.5709	54
21.9449	22.5709	57
22.1089	22.5709	61
22.2679	22.5709	66
22.4279	22.5889	69
22.5889	22.9039	78
22.9049	23.2329	76
23.2329	23.5549	76
23.5549	23.8729	74
23.8729	25.1679	75
24.0339	25.1189	47
24.1929	25.1189	54
24.3569	25.1189	57
24.5169	25.1189	59
24.6789	25.1189	63
24.8369	25.1189	66
25.0079	25.1679	69
25.1689	25.4899	73
25.4899	25.8159	71
25.8189	26.1409	69
26.1419	26.4599	65
26.4629	27.4339	66
26.6239	27.7339	42
26.7889	27.7339	49
26.9499	27.7339	54
27.1119	27.7339	57
27.2689	27.7339	61
27.4339	27.7339	66
27.5869	27.7479	69
27.7509	27.9709	81
27.9719	28.1929	80
28.1929	28.4089	78
28.4129	28.7309	76
28.7319	29.0569	63
28.7319	29.0579	69
28.7349	29.0579	75
28.7349	29.0599	47
28.7359	29.0609	59
28.7379	29.0609	54
29.0639	29.3819	73
29.3829	29.7079	64
29.3859	29.7089	69
29.3859	29.7089	75
29.3869	29.7089	52
29.3869	29.7109	49
29.3869	29.7109	57
29.7119	30.0259	73
30.0269	30.3519	71
30.0269	30.3529	65
30.0299	30.3529	50
30.0299	30.3549	56
30.3549	30.6739	70
30.6769	30.9989	66
30.6779	31.0029	71
30.6809	31.0039	51
30.6809	31.0059	57
31.0059	31.3209	69
31.3219	31.6429	65
31.6469	32.6059	66
31.8079	32.9029	42
31.9659	32.9029	49
32.1269	32.9029	54
32.2869	32.9029	57
32.4419	32.9029	61
32.6059	32.9029	66
32.7669	32.9239	69
32.9249	33.2429	78
33.2439	33.5679	76
33.5689	33.8869	76
33.8879	34.2119	74
34.2129	35.5069	75
34.3699	35.4509	47
34.5319	35.4509	54
34.6959	35.4509	57
34.8529	35.4509	59
35.0139	35.4509	63
35.1759	35.4509	66
35.3399	35.5079	69
35.5079	35.8259	73
35.8269	36.1549	71
36.1579	36.4729	69
36.4769	36.7989	65
36.8019	37.7659	66
36.9639	38.0689	42
37.1249	38.0689	49
37.2889	38.0689	54
37.4469	38.0689	57
37.6079	38.0689	61
37.7659	38.0689	66
37.9259	38.0869	69
38.0909	38.3069	81
38.3109	38.5239	80
38.5239	38.7449	78
38.7459	39.0699	76
39.0709	39.3989	63
39.0739	39.4029	69
39.0739	39.4039	75
39.0749	39.4039	47
39.0749	39.4059	59
39.0769	39.4069	54
39.4069	39.6169	80
39.6169	39.8299	78
39.8299	40.0499	76
40.0509	40.3689	75
40.3729	40.6939	64
40.3729	40.6949	73
40.3729	40.6949	69
40.3759	40.6979	49
40.3769	40.6989	57
40.3769	40.7009	52
40.3769	40.7019	61
40.7019	40.9149	78
40.9189	41.1319	76
41.1319	41.3489	75
41.3529	41.6709	73
41.3559	41.6719	61
41.6719	41.9959	69
41.6739	41.9969	66
41.6739	41.9969	71
41.6749	41.9999	54
41.6779	42.0009	51
41.6779	42.0009	59
42.0029	42.3219	73
42.0039	42.3229	61
42.3229	42.6469	71
42.3249	42.6479	64
42.3259	42.6479	68
42.3259	42.6479	56
42.3259	42.6509	52
42.3289	42.6519	59
42.6519	42.9689	73
42.6519	42.9729	61
42.9739	43.2949	62
42.9739	43.2989	71
42.9759	43.2989	68
42.9769	43.2989	56
42.9769	43.3019	53
42.9799	43.3029	59
43.3029	43.6309	73
43.3049	43.6349	61
43.6349	43.9698	63
43.6379	43.9708	69
43.6389	43.9708	71
43.6389	43.9739	59
43.6389	43.9748	54
43.9748	44.2889	73
43.9768	44.2898	61
44.2898	44.6069	59
44.2918	44.6109	71
44.6118	45.8398	71
44.6118	45.8398	76
44.6118	46.4058	64
44.6138	45.8368	68
44.8168	46.4058	40
45.0198	45.4268	47
45.2238	45.6328	52
45.4268	46.4058	47
45.6328	46.0428	52
45.8368	46.4058	68
45.8398	46.1438	71
45.8398	46.1478	80
45.8398	46.1468	76
45.8428	46.2458	59
46.0428	46.4058	52
46.1438	46.4548	71
46.1468	46.4558	76
46.1478	46.4558	80
46.1478	46.4568	83
46.2458	46.4578	59
46.4588	46.7588	76
46.4588	46.7598	85
46.4598	46.7628	80
46.4618	46.7638	73
46.4628	46.7668	64
46.7668	47.0848	83
46.7668	47.0858	71
47.0888	48.3248	68
47.0888	48.3258	71
47.0918	48.3248	76
47.0928	48.9447	80
47.2958	48.9477	40
47.4988	47.9048	47
47.7018	48.1148	52
47.9048	48.9477	47
48.1148	48.5278	52
48.3248	48.6328	68
48.3248	48.9477	76
48.3258	48.6287	71
48.3258	48.9477	64
48.3278	48.7308	59
48.5278	48.9477	52
48.6287	48.9477	71
48.6298	48.9477	73
48.6328	48.9437	68
48.6328	48.9477	61
48.7308	48.9477	59
48.9437	49.2447	68
48.9447	49.2487	80
48.9477	49.2487	71
48.9477	49.2497	63
49.2517	49.5527	66
49.2527	49.5557	78
49.5557	50.7957	61
49.5567	50.7987	73
49.5567	50.7957	66
49.5597	50.7987	69
49.7627	51.4187	40
49.9727	50.3797	47
50.1757	50.5817	54
50.3797	51.4187	47
50.5817	50.9987	54
50.7957	51.4187	61
50.7957	51.1037	66
50.7987	51.4187	73
50.7987	51.4187	69
50.7997	51.2017	59
50.9987	51.4187	54
51.1027	51.4187	63
51.1037	51.4177	66
51.1037	51.4157	71
51.2017	51.4187	59
51.4157	51.7187	71
51.4157	51.7197	78
51.4177	51.7227	68
51.4177	51.7227	66
51.4187	51.7237	64
51.7237	52.0267	64
51.7257	52.0277	76
52.0277	53.2707	64
52.0307	53.5826	71
52.0317	53.2697	68
52.0317	53.5816	59
52.2377	53.8966	40
52.4397	52.8537	47
52.6507	53.0607	52
52.8537	53.8966	47
53.0607	53.4726	52
53.2697	53.8906	68
53.2697	53.8966	70
53.2707	53.8896	64
53.2737	53.8966	58
53.2737	53.6766	56
53.4726	53.8966	52
53.5816	53.8916	59
53.5826	53.8966	71
53.6766	53.8966	56
53.8896	54.2046	64
53.8896	54.2046	73
53.8896	54.2056	61
53.8906	54.2076	68
53.8916	54.2076	59
54.2076	54.5266	59
54.2086	54.5296	71
54.2116	54.5296	64
54.2116	54.5326	68
54.5336	56.3896	64
54.5336	55.7686	76
54.5346	55.7656	68
54.5356	55.7666	71
54.7326	56.3916	40
54.9396	55.3456	47
55.1456	55.5526	52
55.3456	56.3916	47
55.5526	55.9686	52
55.7656	56.3916	68
55.7666	56.0736	71
55.7666	56.0746	80
55.7686	56.0736	76
55.7686	56.1716	59
55.9686	56.3916	52
56.0736	56.3916	71
56.0736	56.3886	76
56.0746	56.3856	80
56.0746	56.3916	83
56.1716	56.3916	59
56.3856	56.6926	80
56.3886	56.6966	76
56.3886	56.6966	73
56.3896	56.6976	85
56.3896	56.6996	64
56.6996	57.0186	71
56.7006	57.0186	83
57.0216	58.2546	71
57.0216	58.8735	80
57.0226	58.2546	76
57.0256	58.2566	68
57.2276	58.8765	40
57.4316	57.8376	47
57.6346	58.0416	52
57.8376	58.8765	47
58.0416	58.4536	52
58.2546	58.5645	71
58.2546	58.8765	76
58.2566	58.5645	68
58.2576	58.8765	64
58.2576	58.6635	59
58.4536	58.8765	52
58.5616	58.8765	61
58.5625	58.8765	73
58.5645	58.8705	68
58.5645	58.8725	71
58.6635	58.8765	59
58.8705	59.1775	68
58.8725	59.1785	71
58.8735	59.1785	80
58.8735	59.1805	63
59.1815	59.4855	78
59.1845	59.4865	66
59.4865	60.7275	61
59.4885	60.7285	66
59.4895	60.7325	73
59.4895	60.7315	69
59.6955	61.3475	40
59.8995	60.3045	47
60.1025	60.5155	54
60.3045	61.3475	47
60.5155	60.9275	54
60.7275	61.3475	61
60.7285	61.0325	66
60.7315	61.3475	69
60.7325	61.3475	73
60.7325	61.1375	59
60.9275	61.3475	54
61.0325	61.3405	66
61.0365	61.3475	63
61.0365	61.3445	71
61.1375	61.3475	59
61.3405	61.6525	66
61.3445	61.6525	78
61.3445	61.6535	68
61.3445	61.6535	71
61.3475	61.6555	64
61.6555	61.9605	64
61.6565	61.9605	76
61.9615	63.1995	68
61.9635	63.5104	71
61.9635	63.1965	64
61.9635	63.5104	59
62.1595	63.8224	40
62.3735	62.7795	47
62.5725	62.9825	52
62.7795	63.8224	47
62.9825	63.3995	52
63.1955	63.8224	58
63.1965	63.8224	70
63.1965	63.5075	64
63.1995	63.5084	68
63.1995	63.6015	56
63.3995	63.8224	52
63.5075	63.8184	64
63.5084	63.8184	68
63.5104	63.8224	71
63.5104	63.8194	59
63.6015	63.8224	56
63.8164	64.1154	61
63.8184	64.1194	64
63.8184	64.1204	68
63.8194	64.1224	73
63.8194	64.1234	59
64.1234	64.4304	70
64.1264	64.4314	58
64.4344	65.9894	59
64.4354	65.6744	64
64.4354	65.9854	71
64.4374	65.6764	68
64.6334	66.3064	40
64.8454	65.2574	47
65.0544	65.4604	52
65.2574	66.3064	47
65.4604	65.8804	52
65.6734	66.3064	58
65.6744	65.9894	64
65.6764	65.9854	68
65.6774	66.3064	70
65.6774	66.0874	56
65.8804	66.3064	52
65.9854	66.2934	68
65.9854	66.3064	71
65.9894	66.2994	59
65.9894	66.2974	64
66.0874	66.3064	56
66.2934	66.6044	68
66.2964	66.6054	73
66.2974	66.6054	64
66.2974	66.6064	61
66.2994	66.6074	59
66.6084	66.9134	58
66.6084	66.9134	70
66.9134	68.7924	64
66.9144	68.7924	71
66.9154	68.7924	68
66.9164	68.7924	59
67.1194	68.7924	40
67.3254	67.7354	47
67.5324	67.9384	52
67.7354	68.7924	47
67.9384	68.3584	52
68.1514	68.5654	56
68.3584	68.7924	52
68.5654	68.7924	56
68.7814	69.8323	45
68.8164	69.8323	52
68.8554	69.8254	57
68.8934	69.8214	60
68.9314	69.8323	64
68.9704	69.8323	69
69.0124	69.5944	72
69.5944	69.8224	72
69.8214	70.2933	60
69.8214	70.2974	66
69.8224	70.2474	72
69.8244	70.2983	50
69.8254	70.3003	57
70.1754	70.2474	71
70.2384	70.3003	69
70.3013	70.4123	62
70.3013	70.4123	67
70.3043	70.4123	43
70.3043	70.4163	50
70.3053	70.4163	59
70.5203	70.6363	62
70.5213	70.6373	67
70.5213	70.6403	74
70.5243	70.6403	47
70.5253	70.6413	55
70.5253	70.6433	59
70.7593	70.8743	64
70.7593	70.8753	67
70.7603	70.8773	72
70.7623	70.8783	76
70.7623	70.8783	48
70.7623	70.8823	55
70.7663	70.8823	60
70.9973	71.1273	67
70.9973	71.1273	72
70.9983	71.1273	79
71.0003	71.1283	52
71.0013	71.1293	60
71.0013	71.1303	64
71.2453	72.1063	67
71.2483	72.1073	71
71.2493	72.1093	74
71.2523	72.1103	62
71.2523	72.1103	59
71.2533	72.1113	55
72.1133	72.3093	68
72.1143	72.3093	71
72.1143	72.2043	76
72.1153	72.3103	52
72.1173	72.3133	64
72.1173	72.3133	59
72.2053	72.3143	74
72.3143	72.4083	72
72.4083	72.5123	71
72.5133	72.6173	72
72.5153	72.6173	69
72.5163	72.6183	63
72.6913	72.7163	83
72.7163	72.8203	78
72.7173	72.8213	84
72.7183	72.8213	57
72.9253	73.0233	72
72.9253	73.0233	69
72.9263	73.0243	63
73.1033	73.1283	83
73.1293	73.2333	84
73.1313	73.2343	78
73.1323	73.2343	57
73.3313	73.4363	72
73.3313	73.4373	69
73.3323	73.4373	63
73.5093	73.5383	83
73.5393	73.6363	84
73.5413	73.6363	78
73.5453	73.6393	57
73.7443	73.9443	68
73.7453	73.9443	71
73.7453	73.8383	76
73.7473	73.9473	52
73.7483	73.9513	64
73.7483	73.9513	59
73.8423	73.9513	74
73.9523	74.0463	72
74.0463	74.1463	71
74.1503	74.2553	72
74.1513	74.2553	69
74.1533	74.2563	63
74.3293	74.3533	83
74.3543	74.4543	78
74.3553	74.4593	84
74.3573	74.4593	57
74.5603	74.6583	72
74.5603	74.6583	69
74.5633	74.6623	63
74.7413	74.7623	83
74.7673	74.8683	84
74.7673	74.8683	78
74.7683	74.8713	57
74.9733	75.0703	72
74.9733	75.0753	69
74.9763	75.0753	63
75.1482	75.1763	83
75.1773	75.2812	84
75.1793	75.2812	78
75.1802	75.2843	57
75.3782	75.5822	68
75.3792	75.5822	71
75.3822	75.4772	76
75.3833	75.5852	52
75.3833	75.5852	64
75.3862	75.5892	59
75.4802	75.5892	74
75.5892	75.6862	72
75.6872	75.7812	71
75.7822	76.8352	45
75.8202	76.8352	52
75.8552	76.8312	57
75.8972	76.8242	60
75.9352	76.8352	64
75.9782	76.8352	69
76.0122	76.5932	72
76.5932	76.8282	72
76.8242	77.3002	60
76.8282	77.3012	66
76.8282	77.2552	72
76.8292	77.3012	50
76.8312	77.3042	57
77.1852	77.2552	71
77.2442	77.3042	69
77.3072	77.4162	62
77.3082	77.4172	67
77.3082	77.4192	43
77.3092	77.4202	50
77.3112	77.4202	59
77.5352	77.6462	62
77.5352	77.6512	67
77.5362	77.6512	74
77.5382	77.6532	47
77.5382	77.6542	55
77.5382	77.6542	59
77.7692	77.8852	64
77.7702	77.8882	67
77.7702	77.8882	72
77.7702	77.8922	76
77.7732	77.8922	48
77.7732	77.8922	55
77.7742	77.8952	60
78.0072	78.1302	67
78.0102	78.1312	72
78.0112	78.1332	79
78.0142	78.1332	52
78.0152	78.1372	60
78.0152	78.1372	64
78.2602	79.1172	67
78.2602	79.1202	71
78.2602	79.1202	74
78.2632	79.1212	62
78.2632	79.1242	59
78.2632	79.1242	55
79.1252	79.3122	71
79.1252	79.2152	76
79.1272	79.3172	59
79.1272	79.3192	55
79.1282	79.3202	64
79.1312	79.3202	61
79.2192	79.3202	74
79.3232	79.4212	73
79.4222	79.5202	71
79.5202	79.6202	62
79.5212	79.6252	66
79.5232	79.6252	59
79.6982	79.7292	79
79.7302	79.8312	74
79.7302	79.8342	71
79.7302	79.8352	78
79.7332	79.8352	54
79.9282	80.0342	62
79.9332	80.0352	66
79.9332	80.0372	59
80.1112	80.1392	79
80.1422	80.2362	74
80.1432	80.2412	78
80.1432	80.2412	71
80.1462	80.2432	54
80.3422	80.4472	62
80.3432	80.4502	66
80.3452	80.4512	59
80.5232	80.5442	79
80.5492	80.6492	74
80.5492	80.6502	78
80.5502	80.6532	71
80.5512	80.6542	54
80.7552	80.9502	71
80.7552	80.8522	76
80.7562	80.9552	59
80.7582	80.9552	55
80.7582	80.9572	64
80.7592	80.9582	61
80.8532	80.9582	74
80.9582	81.0562	73
81.0571	81.1611	71
81.1651	81.2582	62
81.1651	81.2631	66
81.1662	81.2631	59
81.3432	81.3642	79
81.3652	81.4691	74
81.3672	81.4691	71
81.3682	81.4691	78
81.3682	81.4732	54
81.5661	81.6722	62
81.5672	81.6731	66
81.5701	81.6751	59
81.7491	81.7771	79
81.7771	81.8811	74
81.7781	81.8821	78
81.7802	81.8821	71
81.7802	81.8851	54
81.9801	82.0851	62
81.9811	82.0851	66
81.9831	82.0861	59
82.1611	82.1891	79
82.1901	82.2881	74
82.1911	82.2891	78
82.1931	82.2911	71
82.1941	82.2921	54
82.3931	82.5961	71
82.3931	82.4911	76
82.3941	82.5971	59
82.3961	82.5991	55
82.3961	82.6001	64
82.3971	82.6001	61
82.4911	82.6001	74
82.6031	82.6941	73
82.6941	82.7991	71
82.7991	82.8961	54
82.8001	82.8971	57
82.8031	82.9001	50
82.9771	83.0021	71
83.0021	83.1071	66
83.0051	83.1071	62
83.0051	83.1081	69
83.0061	83.1081	45
83.2111	83.3101	54
83.2121	83.3111	57
83.2121	83.3131	50
83.3831	83.4151	71
83.4151	83.5191	66
83.4161	83.5201	69
83.4191	83.5201	62
83.4191	83.5211	45
83.6181	83.7231	54
83.6191	83.7231	57
83.6191	83.7241	51
83.7971	83.8271	71
83.8281	83.9291	66
83.8281	83.9331	69
83.8291	83.9331	60
83.8311	83.9341	45
84.0311	84.2341	61
84.0311	84.1281	69
84.0321	84.2351	52
84.0321	84.2351	57
84.0341	84.2371	55
84.1291	84.2381	67
84.2381	84.3321	66
84.3321	84.4371	64
84.4371	84.5341	62
84.5351	84.6331	61
84.6331	84.7371	59
84.7381	84.8351	57
84.8361	84.9411	55
84.9411	85.0391	54
85.0391	85.1361	52
85.1411	85.2421	50
85.2431	85.3431	50
85.3431	85.4441	49
85.4451	85.5501	47
85.551	85.655	45
85.655	85.759	43
85.76	85.865	42
85.866	85.973	40
85.977	86.078	38
86.079	87.118	45
86.116	87.118	52
86.155	87.118	57
86.194	87.114	60
86.229	87.118	64
86.271	87.118	69
86.306	86.876	72
86.876	87.115	72
87.114	87.583	60
87.115	87.583	66
87.115	87.541	72
87.116	87.584	50
87.118	87.584	57
87.469	87.541	71
87.525	87.587	69
87.587	87.698	62
87.588	87.699	67
87.588	87.699	43
87.59	87.7	50
87.59	87.703	59
87.814	87.93	62
87.815	87.93	67
87.815	87.933	74
87.818	87.933	47
87.818	87.933	55
87.819	87.937	59
88.052	88.175	64
88.053	88.176	67
88.056	88.176	72
88.056	88.178	76
88.056	88.178	48
88.057	88.179	55
88.06	88.179	60
88.291	88.419	67
88.291	88.42	72
88.292	88.42	79
88.294	88.421	52
88.294	88.423	60
88.294	88.424	64
88.546	89.396	67
88.546	89.4	71
88.549	89.4	74
88.549	89.403	62
88.55	89.404	59
88.55	89.404	55
89.407	89.603	68
89.408	89.603	71
89.408	89.501	76
89.408	89.603	52
89.41	89.604	64
89.41	89.607	59
89.502	89.607	74
89.607	89.7	72
89.701	89.802	71
89.806	89.911	72
89.809	89.911	69
89.809	89.912	63
89.984	90.012	83
90.016	90.11	78
90.016	90.114	84
90.019	90.115	57
90.219	90.32	72
90.219	90.324	69
90.22	90.324	63
90.397	90.418	83
90.422	90.523	84
90.423	90.523	78
90.425	90.527	57
90.628	90.726	72
90.632	90.73	69
90.632	90.731	63
90.81	90.831	83
90.831	90.936	84
90.835	90.94	78
90.836	90.94	57
91.034	91.238	68
91.039	91.238	71
91.039	91.139	76
91.041	91.241	52
91.041	91.241	64
91.042	91.245	59
91.139	91.245	74
91.245	91.342	72
91.343	91.44	71
91.444	91.546	72
91.445	91.546	69
91.447	91.5489	63
91.6219	91.6499	83
91.6539	91.7479	78
91.6539	91.752	84
91.655	91.7529	57
91.8539	91.9579	72
91.8539	91.9619	69
91.8569	91.9619	63
92.0349	92.0629	83
92.0639	92.1619	84
92.0669	92.1619	78
92.0669	92.1649	57
92.2659	92.3709	72
92.2669	92.3719	69
92.2669	92.3749	63
92.4449	92.4689	83
92.4689	92.5739	84
92.4729	92.5749	78
92.4729	92.5749	57
92.6789	92.8759	68
92.6799	92.8759	71
92.6799	92.7769	76
92.6829	92.8789	52
92.6829	92.8789	64
92.6839	92.8789	59
92.7769	92.8829	74
92.8829	92.9799	72
92.9809	93.0709	71
93.0719	94.1249	45
93.1129	94.1249	52
93.1489	94.1179	57
93.1909	94.1149	60
93.2279	94.1249	64
93.2669	94.1249	69
93.3059	93.8799	72
93.8799	94.1159	72
94.1149	94.5829	60
94.1149	94.5839	66
94.1159	94.5339	72
94.1179	94.5869	50
94.1179	94.5879	57
94.4679	94.5339	71
94.5239	94.5879	69
94.5879	94.6989	62
94.5899	94.6989	67
94.5909	94.6999	43
94.5909	94.7019	50
94.5939	94.7019	59
94.8109	94.9299	62
94.8109	94.9309	67
94.8119	94.9329	74
94.8119	94.9339	47
94.8149	94.9339	55
94.8149	94.9369	59
95.0449	95.1719	64
95.0489	95.1719	67
95.0489	95.1719	72
95.0519	95.1729	76
95.0519	95.1749	48
95.0529	95.1749	55
95.0529	95.1749	60
95.2899	95.4129	67
95.2909	95.4129	72
95.2939	95.4169	79
95.2939	95.4169	52
95.2949	95.4169	60
95.2969	95.4179	64
95.5379	96.3929	67
95.5419	96.3969	71
95.5429	96.3969	74
95.5449	96.3969	62
95.5459	96.3989	59
95.5459	96.3999	55
96.3999	96.5959	71
96.4029	96.4969	76
96.4039	96.5969	59
96.4039	96.5989	55
96.4049	96.5989	64
96.4069	96.5999	61
96.4979	96.6029	74
96.6039	96.7009	73
96.7049	96.7989	71
96.8019	96.9069	62
96.8029	96.9079	66
96.8029	96.9079	59
96.9809	97.0089	79
97.0089	97.1069	74
97.0129	97.1109	71
97.0129	97.1109	78
97.0129	97.1109	54
97.2119	97.3169	62
97.2129	97.3179	66
97.2129	97.3179	59
97.3909	97.4149	79
97.4149	97.5199	74
97.4189	97.5209	78
97.4189	97.5209	71
97.4199	97.5228	54
97.6249	97.7228	62
97.6258	97.7268	66
97.6278	97.7268	59
97.8028	97.8278	79
97.8288	97.9328	74
97.8288	97.9338	78
97.8308	97.9338	71
97.8318	97.9358	54
98.0348	98.2338	71
98.0378	98.1348	76
98.0418	98.2348	59
98.0418	98.2348	55
98.0418	98.2368	64
98.0428	98.2378	61
98.1358	98.2378	74
98.2408	98.3388	73
98.3388	98.4428	71
98.4438	98.5418	62
98.4438	98.5428	66
98.4478	98.5428	59
98.6188	98.6468	79
98.6468	98.7478	74
98.6478	98.7518	71
98.6508	98.7548	78
98.6508	98.7558	54
98.8498	98.9548	62
98.8508	98.9548	66
98.8508	98.9558	59
99.0288	99.0558	79
99.0598	99.1578	74
99.0598	99.1588	78
99.0638	99.1588	71
99.0638	99.1608	54
99.2628	99.3648	62
99.2628	99.3678	66
99.2638	99.3678	59
99.4408	99.4658	79
99.4668	99.5668	74
99.4668	99.5678	78
99.4688	99.5708	71
99.4698	99.5708	54
99.6728	99.8678	71
99.6758	99.7698	76
99.6758	99.8718	59
99.6798	99.8748	55
99.6798	99.8748	64
99.6798	99.8758	61
99.7738	99.8758	74
99.8788	99.9768	73
99.9768	100.078	71
100.081	100.18	63
100.082	100.181	66
100.085	100.181	59
100.254	100.285	80
100.285	100.386	75
100.286	100.39	71
100.286	100.39	78
100.289	100.39	54
100.491	100.59	63
100.492	100.59	66
100.495	100.593	59
100.666	100.694	80
100.698	100.799	75
100.698	100.8	78
100.699	100.803	71
100.699	100.804	54
100.898	101.003	63
100.898	101.006	66
100.901	101.006	59
101.076	101.107	80
101.108	101.205	75
101.111	101.205	78
101.112	101.209	71
101.112	101.209	54
101.31	101.415	59
101.311	101.416	63
101.311	101.419	66
101.492	101.513	80
101.513	101.619	71
101.517	101.619	75
101.517	101.62	78
101.518	101.622	54
101.723	101.828	69
101.724	101.828	71
101.724	101.829	66
101.902	101.93	85
101.934	102.028	75
101.934	102.032	78
101.937	102.032	83
101.937	102.035	59
102.136	102.238	69
102.137	102.242	71
102.137	102.242	66
102.314	102.342	85
102.343	102.444	75
102.347	102.445	83
102.347	102.445	78
102.348	102.445	59
102.546	102.651	69
102.55	102.651	71
102.551	102.655	66
102.728	102.749	85
102.75	102.854	75
102.752	102.854	83
102.753	102.858	78
102.756	102.858	59
102.958	103.057	66
102.959	103.058	69
102.963	103.06	71
103.141	103.162	85
103.162	103.267	83
103.163	103.267	75
103.166	103.271	78
103.166	103.271	59
103.372	103.477	59
103.373	103.478	66
103.373	103.478	69
103.375	103.48	71
103.48	103.526	76
103.579	103.627	74
103.68	103.732	75
103.785	103.834	71
103.887	103.938	76
103.988	104.04	74
104.093	104.142	75
104.195	104.299	63
104.198	104.3	69
104.198	104.3	71
104.303	104.348	80
104.401	104.45	77
104.503	104.555	78
104.607	104.66	71
104.712	104.758	80
104.811	104.863	77
104.915	104.968	78
105.02	105.122	66
105.021	105.126	71
105.021	105.129	75
105.129	105.171	83
105.223	105.276	80
105.328	105.381	81
105.43	105.483	78
105.534	105.583	83
105.636	105.689	80
105.738	105.791	81
105.843	105.895	78
105.948	106	83
106.046	106.099	80
106.151	106.203	81
106.256	106.308	78
106.361	106.414	83
106.459	106.512	80
106.564	106.616	81
106.669	106.721	78
106.771	106.827	83
106.872	106.924	80
106.977	107.029	81
107.079	107.134	78
107.187	107.236	83
107.288	107.341	80
107.397	107.446	81
107.499	107.551	78
107.603	107.656	83
107.709	107.761	80
107.81	107.862	81
107.918	107.971	78
108.02	108.073	83
108.125	108.178	80
108.237	108.286	81
108.349	108.783	76
108.349	108.794	61
108.451	108.794	83
108.562	108.794	79
108.563	108.794	59
108.671	108.794	80
108.783	109.21	76
108.783	109.656	64
108.891	109.322	83
108.997	109.434	79
109.105	109.542	80
109.21	109.655	76
109.213	109.656	52
109.214	109.656	59
109.322	109.656	83
109.434	109.656	79
109.542	109.656	80
109.655	110.082	76
109.656	110.098	68
109.756	110.098	83
109.869	110.098	79
109.869	110.098	71
109.973	110.098	80
110.082	110.134	76
110.083	110.54	73
110.186	110.54	83
110.299	110.54	80
110.3	110.54	71
110.407	110.54	85
110.522	110.575	76
110.526	111.391	68
110.628	111.058	83
110.735	111.17	80
110.841	111.279	85
110.953	111.387	76
110.953	111.391	52
110.957	111.391	59
111.058	111.391	83
111.17	111.391	80
111.279	111.391	85
111.387	111.828	76
111.391	111.828	64
111.499	111.828	83
111.604	111.828	80
111.605	111.828	61
111.713	111.828	85
111.825	112.266	78
111.825	112.276	68
111.93	112.276	83
112.038	112.276	81
112.038	112.276	66
112.15	112.276	87
112.266	112.318	78
112.266	113.131	61
112.371	112.804	83
112.479	112.92	81
112.584	113.018	87
112.693	113.13	78
112.696	113.137	54
112.696	113.137	52
112.7	113.137	57
112.804	113.137	83
112.92	113.137	81
113.018	113.137	87
113.13	113.182	78
113.131	113.571	61
113.239	113.571	83
113.344	113.561	81
113.347	113.571	59
113.455	113.571	87
113.561	114.011	81
113.562	114.011	66
113.669	114.011	83
113.781	114.011	80
113.782	114.011	64
113.89	114.011	88
113.998	114.057	79
114.002	114.884	59
114.11	114.548	83
114.222	114.656	80
114.331	114.768	88
114.435	114.877	79
114.436	114.884	52
114.548	114.884	83
114.656	114.884	80
114.768	114.884	88
114.877	114.929	79
114.88	115.324	58
114.981	115.324	85
115.093	115.324	80
115.094	115.324	59
115.202	115.324	83
115.311	115.366	76
115.315	115.751	61
115.415	115.751	83
115.528	115.751	79
115.529	115.751	59
115.637	115.751	80
115.748	116.182	76
115.749	116.624	64
115.857	116.288	83
115.961	116.4	79
116.073	116.508	80
116.182	116.617	76
116.186	116.624	52
116.186	116.624	59
116.288	116.624	83
116.4	116.624	79
116.508	116.624	80
116.617	116.672	76
116.62	117.051	68
116.724	117.051	83
116.833	117.051	79
116.834	117.051	71
116.938	117.051	80
117.046	117.099	76
117.05	117.51	73
117.152	117.51	83
117.264	117.51	80
117.264	117.51	71
117.373	117.51	85
117.489	117.54	76
117.491	118.367	68
117.593	118.031	83
117.705	118.136	80
117.811	118.244	85
117.919	118.353	76
117.922	118.367	52
117.923	118.367	59
118.031	118.367	83
118.136	118.367	80
118.244	118.367	85
118.353	118.413	76
118.356	118.808	64
118.465	118.808	83
118.578	118.808	80
118.578	118.808	61
118.685	118.808	85
118.798	118.847	79
118.799	119.249	51
118.801	119.249	59
118.907	119.249	87
119.021	119.249	80
119.022	119.249	63
119.13	119.249	83
119.242	119.301	79
119.243	120.131	71
119.354	119.795	87
119.463	119.904	80
119.574	120.016	83
119.679	120.128	79
119.68	120.131	63
119.795	120.131	87
119.904	120.131	80
120.016	120.131	83
120.128	120.582	79
120.129	120.582	70
120.236	120.582	87
120.348	120.582	80
120.349	120.582	68
120.464	120.582	83
120.573	121.02	82
120.573	121.025	64
120.681	121.025	91
120.799	121.025	84
120.908	121.025	85
121.02	121.08	82
121.021	121.499	51
121.024	121.499	63
121.136	121.499	91
121.248	121.499	86
121.251	121.489	61
121.367	121.499	87
121.486	121.541	80
121.486	122.476	56
121.489	121.965	61
121.601	121.965	92
121.717	121.965	87
121.718	121.965	59
121.839	121.955	80
121.955	122.018	80
121.958	122.476	58
122.077	122.193	75
122.193	122.476	75
122.193	122.476	59
122.319	122.476	68
122.456	123.569	69
122.609	124.377	42
122.771	124.377	65
122.772	124.377	49
122.932	124.377	54
123.093	123.415	66
123.096	124.377	57
123.257	124.377	61
123.415	123.89	66
123.569	124.051	69
123.733	124.208	73
123.89	124.377	66
124.051	124.377	69
124.208	124.377	73
124.37	124.688	78
124.688	125.014	76
125.014	126.963	76
125.174	126.963	47
125.337	126.963	74
125.337	126.963	54
125.494	126.963	57
125.654	126.963	75
125.655	126.963	59
125.816	126.46	63
125.98	126.624	66
126.141	126.298	69
126.298	126.785	69
126.46	126.963	63
126.624	126.963	66
126.785	126.963	69
126.949	127.271	73
127.271	127.6	71
127.604	128.735	69
127.764	129.543	42
127.923	129.543	65
127.926	129.543	49
128.084	129.543	54
128.248	128.574	66
128.251	129.543	57
128.412	129.543	61
128.574	129.543	66
128.735	129.056	69
128.892	129.21	73
129.056	129.543	69
129.21	129.543	73
129.375	129.543	78
129.536	129.696	81
129.756	129.918	80
129.973	130.141	78
130.19	130.516	76
130.516	130.834	63
130.519	130.838	69
130.519	130.838	75
130.523	130.841	47
130.523	130.841	54
130.523	130.841	59
130.842	131.163	73
131.163	131.485	64
131.164	131.485	69
131.164	131.489	75
131.167	131.489	49
131.167	131.489	52
131.167	131.492	57
131.492	131.811	73
131.814	132.136	65
131.814	132.137	71
131.815	132.137	50
131.815	132.14	56
132.14	132.455	70
132.458	132.787	66
132.458	132.787	71
132.459	132.788	51
132.462	132.791	57
132.791	133.908	69
132.944	134.726	42
133.107	134.726	65
133.109	134.726	49
133.271	134.726	54
133.435	133.751	66
133.435	134.726	57
133.589	134.726	61
133.751	134.226	66
133.908	134.383	69
134.065	134.547	73
134.226	134.726	66
134.383	134.726	69
134.547	134.726	73
134.709	135.027	78
135.027	135.353	76
135.353	137.299	76
135.51	137.299	47
135.675	137.299	74
135.675	137.299	54
135.829	137.299	57
135.993	137.299	75
135.993	137.299	59
136.155	136.799	63
136.312	136.956	66
136.476	136.638	69
136.638	137.124	69
136.799	137.299	63
136.956	137.299	66
137.124	137.299	69
137.288	137.61	73
137.61	137.936	71
137.936	139.07	69
138.096	139.889	42
138.265	139.889	65
138.265	139.889	49
138.425	139.889	54
138.581	138.909	66
138.583	139.889	57
138.741	139.889	61
138.909	139.889	66
139.07	139.389	69
139.231	139.549	73
139.389	139.889	69
139.549	139.889	73
139.714	139.889	78
139.871	140.088	81
140.092	140.308	80
140.309	140.533	78
140.533	140.848	76
140.851	141.18	63
140.852	141.184	69
140.855	141.184	75
140.855	141.185	47
140.856	141.185	54
140.856	141.187	59
141.187	141.394	80
141.397	141.615	78
141.618	141.831	76
141.831	142.15	75
142.153	142.482	64
142.154	142.482	69
142.154	142.483	73
142.154	142.483	49
142.157	142.486	52
142.157	142.486	57
142.158	142.486	61
142.487	142.696	78
142.697	142.917	76
142.917	143.13	75
143.133	143.459	73
143.134	143.459	61
143.46	143.781	66
143.46	143.781	69
143.462	143.784	71
143.462	143.785	51
143.463	143.785	54
143.463	143.788	59
143.788	144.103	73
143.789	144.103	61
144.104	144.425	64
144.104	144.425	68
144.106	144.428	71
144.106	144.428	52
144.107	144.429	56
144.107	144.432	59
144.432	144.75	73
144.433	144.754	61
144.754	145.083	62
144.755	145.083	68
144.755	145.084	71
144.757	145.086	53
144.757	145.086	56
144.758	145.087	59
145.087	145.419	73
145.09	145.42	61
145.422	145.748	63
145.422	145.751	69
145.423	145.752	71
145.423	145.752	54
145.424	145.755	59
145.755	145.801	69
145.853	145.905	73
145.958	146.01	70
145.959	146.063	51
146.063	146.109	71
146.161	146.213	69
146.161	146.266	66
146.164	146.267	57
146.165	146.267	59
146.269	146.318	73
146.371	146.424	70
146.476	146.528	71
146.574	146.626	69
146.679	146.732	76
146.781	146.833	74
146.784	146.889	47
146.89	146.938	75
146.987	147.036	69
146.988	147.092	66
146.988	147.092	57
146.99	147.092	59
147.093	147.141	76
147.196	147.246	74
147.298	147.351	75
147.411	147.463	75
147.511	147.564	80
147.62	147.673	77
147.722	147.775	78
147.826	147.879	75
147.925	147.981	80
148.03	148.083	77
148.134	148.187	78
148.24	148.292	78
148.345	148.398	83
148.446	148.502	80
148.555	148.604	81
148.656	148.709	78
148.768	148.82	83
148.87	148.926	80
148.978	149.031	81
149.086	149.521	76
149.087	149.535	61
149.199	149.535	83
149.3	149.535	79
149.3	149.535	59
149.413	149.535	80
149.521	149.58	76
149.522	150.399	64
149.633	150.067	83
149.742	150.175	79
149.846	150.284	80
149.958	150.393	76
149.958	150.399	52
149.959	150.399	59
150.067	150.399	83
150.175	150.399	79
150.284	150.399	80
150.393	150.823	76
150.396	150.84	68
150.497	150.84	83
150.609	150.84	79
150.61	150.84	71
150.715	150.84	80
150.823	150.875	76
150.826	151.271	73
150.931	151.271	83
151.037	151.271	80
151.04	151.271	71
151.155	151.271	85
151.264	151.317	76
151.264	152.142	68
151.373	151.803	83
151.477	151.915	80
151.59	152.02	85
151.695	152.128	76
151.695	152.142	52
151.695	152.142	59
151.803	152.142	83
151.915	152.142	80
152.02	152.142	85
152.128	152.577	76
152.132	152.577	64
152.241	152.577	83
152.349	152.577	80
152.353	152.577	61
152.454	152.577	85
152.566	152.619	78
152.567	153.01	68
152.675	153.01	83
152.787	153.01	81
152.787	153.01	66
152.895	153.01	87
153.003	153.056	78
153.007	153.88	61
153.115	153.546	83
153.221	153.658	81
153.332	153.766	87
153.434	153.879	78
153.437	153.882	54
153.438	153.882	52
153.438	153.882	57
153.546	153.882	83
153.658	153.882	81
153.766	153.882	87
153.879	153.928	78
153.88	154.312	61
153.979	154.312	83
154.093	154.306	81
154.093	154.312	59
154.194	154.312	87
154.306	154.753	81
154.306	154.753	66
154.41	154.753	83
154.523	154.753	80
154.524	154.753	64
154.631	154.753	88
154.746	154.799	79
154.747	155.622	59
154.852	155.292	83
154.963	155.404	80
155.072	155.506	88
155.184	155.618	79
155.184	155.622	52
155.292	155.622	83
155.404	155.622	80
155.506	155.622	88
155.618	155.67	79
155.622	156.066	58
155.726	156.066	85
155.839	156.066	80
155.842	156.066	59
155.943	156.066	83
156.052	156.104	76
156.055	156.5	61
156.164	156.5	83
156.269	156.5	79
156.269	156.5	59
156.377	156.5	80
156.49	156.923	76
156.49	157.371	64
156.597	157.032	83
156.71	157.141	79
156.812	157.248	80
156.923	157.361	76
156.927	157.371	52
156.927	157.371	59
157.032	157.371	83
157.141	157.371	79
157.248	157.371	80
157.361	157.41	76
157.362	157.802	68
157.47	157.802	83
157.575	157.802	79
157.578	157.802	71
157.686	157.802	80
157.788	157.841	76
157.792	158.232	73
157.899	158.232	83
158.005	158.232	80
158.006	158.232	71
158.114	158.232	85
158.225	158.274	76
158.226	159.101	68
158.33	158.765	83
158.439	158.877	80
158.543	158.978	85
158.652	159.09	76
158.653	159.101	52
158.656	159.101	59
158.765	159.101	83
158.877	159.101	80
158.978	159.101	85
159.09	159.146	76
159.091	159.531	64
159.198	159.531	83
159.31	159.531	80
159.311	159.531	61
159.416	159.531	85
159.524	159.958	78
159.528	159.972	68
159.629	159.972	83
159.741	159.972	81
159.741	159.972	66
159.853	159.972	87
159.958	160.011	78
159.961	160.834	61
160.07	160.5	83
160.175	160.612	81
160.283	160.721	87
160.396	160.833	78
160.396	160.836	52
160.397	160.836	54
160.399	160.836	57
160.5	160.836	83
160.612	160.836	81
160.721	160.836	87
160.833	160.882	78
160.834	161.277	61
160.941	161.277	83
161.047	161.267	81
161.048	161.277	59
161.158	161.277	87
161.267	161.323	81
161.27	161.712	66
161.376	161.712	83
161.488	161.712	80
161.488	161.712	64
161.596	161.712	88
161.701	161.761	79
161.701	162.593	59
161.813	162.149	83
161.921	162.149	80
162.034	162.149	88
162.142	162.194	79
162.144	162.593	52
162.254	162.593	83
162.363	162.593	80
162.475	162.593	88
162.591	162.644	79
162.591	163.039	58
162.703	163.039	85
162.812	163.039	80
162.815	163.039	59
162.924	163.039	83
163.032	163.473	76
163.033	163.473	61
163.14	163.473	83
163.245	163.473	79
163.249	163.473	59
163.358	163.473	80
163.466	163.518	71
163.47	164.362	56
163.578	163.791	76
163.683	163.914	75
163.791	163.914	76
163.904	163.96	71
163.904	165.235	52
164.012	164.239	76
164.124	164.362	75
164.239	164.362	76
164.352	164.408	71
164.352	164.803	55
164.46	164.683	76
164.576	164.803	75
164.579	164.803	56
164.683	164.803	76
164.799	165.237	64
164.8	165.237	57
164.901	165.121	71
165.013	165.237	70
165.014	165.237	56
165.121	165.237	71
165.234	165.668	59
165.235	165.681	52
165.334	165.556	68
165.447	165.681	67
165.556	165.681	68
165.668	166.119	59
165.671	167.492	40
165.776	165.997	68
165.888	166.119	67
165.997	166.119	68
166.115	166.172	56
166.116	166.571	46
166.224	166.451	64
166.34	166.571	63
166.343	166.571	47
166.451	166.571	64
166.564	166.62	56
166.565	167.036	49
166.679	166.903	64
166.787	167.036	63
166.788	167.036	47
166.903	167.036	64
167.018	167.491	52
167.022	167.988	44
167.134	167.368	59
167.253	167.502	58
167.368	167.502	59
167.491	167.978	52
167.492	169.507	40
167.61	167.855	59
167.732	167.988	58
167.855	167.988	59
167.978	168.475	52
167.982	168.489	43
168.107	168.355	59
168.226	168.489	58
168.355	168.489	59
168.475	168.983	52
168.478	168.992	44
168.604	168.853	59
168.726	168.992	58
168.853	168.992	59
168.983	169.504	52
168.983	169.514	45
169.108	169.37	59
169.238	169.514	58
169.37	169.514	59
169.504	170.039	52
169.507	170.049	44
169.507	175.917	40
169.636	169.906	59
169.773	170.049	58
169.906	170.049	59
170.039	170.589	52
170.042	170.606	43
170.179	170.449	59
170.312	170.606	58
170.449	170.606	59
170.589	171.219	52
170.593	175.917	44
170.746	171.061	59
170.903	171.232	58
171.061	171.232	59
171.219	171.873	52
171.38	171.705	59
171.541	171.89	58
171.705	171.89	59
171.873	172.608	52
172.052	172.419	59
172.233	172.632	58
172.419	172.632	59
172.608	172.706	52
172.808	173.213	59
173.007	173.521	58
173.213	173.521	59
173.514	173.813	52
